date,timestamp,year,month,day,pm25,x1,x2,x3,x4,x5
2013/12/7,1386345600,2013,12,7,241,128,39,82,64,109
2013/12/8,1386432000,2013,12,8,173,241,128,39,82,64
2013/12/9,1386518400,2013,12,9,11,173,241,128,39,82
2013/12/10,1386604800,2013,12,10,21,11,173,241,128,39
2013/12/11,1386691200,2013,12,11,19,21,11,173,241,128
2013/12/12,1386777600,2013,12,12,16,19,21,11,173,241
2013/12/13,1386864000,2013,12,13,48,16,19,21,11,173
2013/12/14,1386950400,2013,12,14,40,48,16,19,21,11
2013/12/15,1387036800,2013,12,15,46,40,48,16,19,21
2013/12/16,1387123200,2013,12,16,102,46,40,48,16,19
2013/12/17,1387209600,2013,12,17,59,102,46,40,48,16
2013/12/18,1387296000,2013,12,18,29,59,102,46,40,48
2013/12/19,1387382400,2013,12,19,45,29,59,102,46,40
2013/12/20,1387468800,2013,12,20,30,45,29,59,102,46
2013/12/21,1387555200,2013,12,21,61,30,45,29,59,102
2013/12/22,1387641600,2013,12,22,135,61,30,45,29,59
2013/12/23,1387728000,2013,12,23,126,135,61,30,45,29
2013/12/24,1387814400,2013,12,24,219,126,135,61,30,45
2013/12/25,1387900800,2013,12,25,169,219,126,135,61,30
2013/12/26,1387987200,2013,12,26,10,169,219,126,135,61
2013/12/27,1388073600,2013,12,27,16,10,169,219,126,135
2013/12/28,1388160000,2013,12,28,11,16,10,169,219,126
2013/12/29,1388246400,2013,12,29,58,11,16,10,169,219
2013/12/30,1388332800,2013,12,30,43,58,11,16,10,169
2013/12/31,1388419200,2013,12,31,50,43,58,11,16,10
2014/1/1,1388505600,2014,1,1,45,50,43,58,11,16
2014/1/2,1388592000,2014,1,2,111,45,50,43,58,11
2014/1/3,1388678400,2014,1,3,47,111,45,50,43,58
2014/1/4,1388764800,2014,1,4,114,47,111,45,50,43
2014/1/5,1388851200,2014,1,5,91,114,47,111,45,50
2014/1/6,1388937600,2014,1,6,138,91,114,47,111,45
2014/1/7,1389024000,2014,1,7,111,138,91,114,47,111
2014/1/8,1389110400,2014,1,8,15,111,138,91,114,47
2014/1/9,1389196800,2014,1,9,27,15,111,138,91,114
2014/1/10,1389283200,2014,1,10,63,27,15,111,138,91
2014/1/11,1389369600,2014,1,11,106,63,27,15,111,138
2014/1/12,1389456000,2014,1,12,27,106,63,27,15,111
2014/1/13,1389542400,2014,1,13,82,27,106,63,27,15
2014/1/14,1389628800,2014,1,14,82,82,27,106,63,27
2014/1/15,1389715200,2014,1,15,95,82,82,27,106,63
2014/1/16,1389801600,2014,1,16,353,95,82,82,27,106
2014/1/17,1389888000,2014,1,17,165,353,95,82,82,27
2014/1/18,1389974400,2014,1,18,74,165,353,95,82,82
2014/1/19,1390060800,2014,1,19,115,74,165,353,95,82
2014/1/20,1390147200,2014,1,20,8,115,74,165,353,95
2014/1/21,1390233600,2014,1,21,18,8,115,74,165,353
2014/1/22,1390320000,2014,1,22,115,18,8,115,74,165
2014/1/23,1390406400,2014,1,23,221,115,18,8,115,74
2014/1/24,1390492800,2014,1,24,148,221,115,18,8,115
2014/1/25,1390579200,2014,1,25,24,148,221,115,18,8
2014/1/26,1390665600,2014,1,26,53,24,148,221,115,18
2014/1/27,1390752000,2014,1,27,89,53,24,148,221,115
2014/1/28,1390838400,2014,1,28,40,89,53,24,148,221
2014/1/29,1390924800,2014,1,29,118,40,89,53,24,148
2014/1/30,1391011200,2014,1,30,72,118,40,89,53,24
2014/1/31,1391097600,2014,1,31,143,72,118,40,89,53
2014/2/1,1391184000,2014,2,1,135,143,72,118,40,89
2014/2/2,1391270400,2014,2,2,66,135,143,72,118,40
2014/2/3,1391356800,2014,2,3,5,66,135,143,72,118
2014/2/4,1391443200,2014,2,4,27,5,66,135,143,72
2014/2/5,1391529600,2014,2,5,88,27,5,66,135,143
2014/2/6,1391616000,2014,2,6,120,88,27,5,66,135
2014/2/7,1391702400,2014,2,7,102,120,88,27,5,66
2014/2/8,1391788800,2014,2,8,67,102,120,88,27,5
2014/2/9,1391875200,2014,2,9,9,67,102,120,88,27
2014/2/10,1391961600,2014,2,10,24,9,67,102,120,88
2014/2/11,1392048000,2014,2,11,98,24,9,67,102,120
2014/2/12,1392134400,2014,2,12,111,98,24,9,67,102
2014/2/13,1392220800,2014,2,13,188,111,98,24,9,67
2014/2/14,1392307200,2014,2,14,265,188,111,98,24,9
2014/2/15,1392393600,2014,2,15,393,265,188,111,98,24
2014/2/16,1392480000,2014,2,16,296,393,265,188,111,98
2014/2/17,1392566400,2014,2,17,105,296,393,265,188,111
2014/2/18,1392652800,2014,2,18,71,105,296,393,265,188
2014/2/19,1392739200,2014,2,19,64,71,105,296,393,265
2014/2/20,1392825600,2014,2,20,164,64,71,105,296,393
2014/2/21,1392912000,2014,2,21,259,164,64,71,105,296
2014/2/22,1392998400,2014,2,22,263,259,164,64,71,105
2014/2/23,1393084800,2014,2,23,211,263,259,164,64,71
2014/2/24,1393171200,2014,2,24,260,211,263,259,164,64
2014/2/25,1393257600,2014,2,25,354,260,211,263,259,164
2014/2/26,1393344000,2014,2,26,316,354,260,211,263,259
2014/2/27,1393430400,2014,2,27,16,316,354,260,211,263
2014/2/28,1393516800,2014,2,28,78,16,316,354,260,211
2014/3/1,1393603200,2014,3,1,38,78,16,316,354,260
2014/3/2,1393689600,2014,3,2,135,38,78,16,316,354
2014/3/3,1393776000,2014,3,3,218,135,38,78,16,316
2014/3/4,1393862400,2014,3,4,57,218,135,38,78,16
2014/3/5,1393948800,2014,3,5,20,57,218,135,38,78
2014/3/6,1394035200,2014,3,6,16,20,57,218,135,38
2014/3/7,1394121600,2014,3,7,48,16,20,57,218,135
2014/3/8,1394208000,2014,3,8,131,48,16,20,57,218
2014/3/9,1394294400,2014,3,9,94,131,48,16,20,57
2014/3/10,1394380800,2014,3,10,81,94,131,48,16,20
2014/3/11,1394467200,2014,3,11,155,81,94,131,48,16
2014/3/12,1394553600,2014,3,12,11,155,81,94,131,48
2014/3/13,1394640000,2014,3,13,20,11,155,81,94,131
2014/3/14,1394726400,2014,3,14,21,20,11,155,81,94
2014/3/15,1394812800,2014,3,15,94,21,20,11,155,81
2014/3/16,1394899200,2014,3,16,113,94,21,20,11,155
2014/3/17,1394985600,2014,3,17,83,113,94,21,20,11
2014/3/18,1395072000,2014,3,18,37,83,113,94,21,20
2014/3/19,1395158400,2014,3,19,46,37,83,113,94,21
2014/3/20,1395244800,2014,3,20,10,46,37,83,113,94
2014/3/21,1395331200,2014,3,21,25,10,46,37,83,113
2014/3/22,1395417600,2014,3,22,47,25,10,46,37,83
2014/3/23,1395504000,2014,3,23,134,47,25,10,46,37
2014/3/24,1395590400,2014,3,24,220,134,47,25,10,46
2014/3/25,1395676800,2014,3,25,200,220,134,47,25,10
2014/3/26,1395763200,2014,3,26,269,200,220,134,47,25
2014/3/27,1395849600,2014,3,27,249,269,200,220,134,47
2014/3/28,1395936000,2014,3,28,128,249,269,200,220,134
2014/3/29,1396022400,2014,3,29,39,128,249,269,200,220
2014/3/30,1396108800,2014,3,30,31,39,128,249,269,200
2014/3/31,1396195200,2014,3,31,133,31,39,128,249,269
2014/4/1,1396281600,2014,4,1,104,133,31,39,128,249
2014/4/2,1396368000,2014,4,2,99,104,133,31,39,128
2014/4/3,1396454400,2014,4,3,23,99,104,133,31,39
2014/4/4,1396540800,2014,4,4,32,23,99,104,133,31
2014/4/5,1396627200,2014,4,5,22,32,23,99,104,133
2014/4/6,1396713600,2014,4,6,53,22,32,23,99,104
2014/4/7,1396800000,2014,4,7,97,53,22,32,23,99
2014/4/8,1396886400,2014,4,8,174,97,53,22,32,23
2014/4/9,1396972800,2014,4,9,121,174,97,53,22,32
2014/4/10,1397059200,2014,4,10,87,121,174,97,53,22
2014/4/11,1397145600,2014,4,11,60,87,121,174,97,53
2014/4/12,1397232000,2014,4,12,100,60,87,121,174,97
2014/4/13,1397318400,2014,4,13,157,100,60,87,121,174
2014/4/14,1397404800,2014,4,14,229,157,100,60,87,121
2014/4/15,1397491200,2014,4,15,91,229,157,100,60,87
2014/4/16,1397577600,2014,4,16,51,91,229,157,100,60
2014/4/17,1397664000,2014,4,17,91,51,91,229,157,100
2014/4/18,1397750400,2014,4,18,138,91,51,91,229,157
2014/4/19,1397836800,2014,4,19,61,138,91,51,91,229
2014/4/20,1397923200,2014,4,20,60,61,138,91,51,91
2014/4/21,1398009600,2014,4,21,48,60,61,138,91,51
2014/4/22,1398096000,2014,4,22,58,48,60,61,138,91
2014/4/23,1398182400,2014,4,23,116,58,48,60,61,138
2014/4/24,1398268800,2014,4,24,115,116,58,48,60,61
2014/4/25,1398355200,2014,4,25,129,115,116,58,48,60
2014/4/26,1398441600,2014,4,26,37,129,115,116,58,48
2014/4/27,1398528000,2014,4,27,51,37,129,115,116,58
2014/4/28,1398614400,2014,4,28,61,51,37,129,115,116
2014/4/29,1398700800,2014,4,29,89,61,51,37,129,115
2014/4/30,1398787200,2014,4,30,103,89,61,51,37,129
2014/5/1,1398873600,2014,5,1,121,103,89,61,51,37
2014/5/2,1398960000,2014,5,2,23,121,103,89,61,51
2014/5/3,1399046400,2014,5,3,38,23,121,103,89,61
2014/5/4,1399132800,2014,5,4,26,38,23,121,103,89
2014/5/5,1399219200,2014,5,5,23,26,38,23,121,103
2014/5/6,1399305600,2014,5,6,74,23,26,38,23,121
2014/5/7,1399392000,2014,5,7,63,74,23,26,38,23
2014/5/8,1399478400,2014,5,8,74,63,74,23,26,38
2014/5/9,1399564800,2014,5,9,61,74,63,74,23,26
2014/5/10,1399651200,2014,5,10,50,61,74,63,74,23
2014/5/11,1399737600,2014,5,11,24,50,61,74,63,74
2014/5/12,1399824000,2014,5,12,34,24,50,61,74,63
2014/5/13,1399910400,2014,5,13,52,34,24,50,61,74
2014/5/14,1399996800,2014,5,14,17,52,34,24,50,61
2014/5/15,1400083200,2014,5,15,59,17,52,34,24,50
2014/5/16,1400169600,2014,5,16,45,59,17,52,34,24
2014/5/17,1400256000,2014,5,17,56,45,59,17,52,34
2014/5/18,1400342400,2014,5,18,77,56,45,59,17,52
2014/5/19,1400428800,2014,5,19,106,77,56,45,59,17
2014/5/20,1400515200,2014,5,20,79,106,77,56,45,59
2014/5/21,1400601600,2014,5,21,107,79,106,77,56,45
2014/5/22,1400688000,2014,5,22,136,107,79,106,77,56
2014/5/23,1400774400,2014,5,23,81,136,107,79,106,77
2014/5/24,1400860800,2014,5,24,76,81,136,107,79,106
2014/5/25,1400947200,2014,5,25,65,76,81,136,107,79
2014/5/26,1401033600,2014,5,26,22,65,76,81,136,107
2014/5/27,1401120000,2014,5,27,35,22,65,76,81,136
2014/5/28,1401206400,2014,5,28,30,35,22,65,76,81
2014/5/29,1401292800,2014,5,29,42,30,35,22,65,76
2014/5/30,1401379200,2014,5,30,84,42,30,35,22,65
2014/5/31,1401465600,2014,5,31,114,84,42,30,35,22
2014/6/1,1401552000,2014,6,1,44,114,84,42,30,35
2014/6/2,1401638400,2014,6,2,26,44,114,84,42,30
2014/6/3,1401724800,2014,6,3,33,26,44,114,84,42
2014/6/4,1401811200,2014,6,4,53,33,26,44,114,84
2014/6/5,1401897600,2014,6,5,58,53,33,26,44,114
2014/6/6,1401984000,2014,6,6,49,58,53,33,26,44
2014/6/7,1402070400,2014,6,7,9,49,58,53,33,26
2014/6/8,1402156800,2014,6,8,27,9,49,58,53,33
2014/6/9,1402243200,2014,6,9,27,27,9,49,58,53
2014/6/10,1402329600,2014,6,10,67,27,27,9,49,58
2014/6/11,1402416000,2014,6,11,40,67,27,27,9,49
2014/6/12,1402502400,2014,6,12,24,40,67,27,27,9
2014/6/13,1402588800,2014,6,13,48,24,40,67,27,27
2014/6/14,1402675200,2014,6,14,38,48,24,40,67,27
2014/6/15,1402761600,2014,6,15,101,38,48,24,40,67
2014/6/16,1402848000,2014,6,16,126,101,38,48,24,40
2014/6/17,1402934400,2014,6,17,88,126,101,38,48,24
2014/6/18,1403020800,2014,6,18,61,88,126,101,38,48
2014/6/19,1403107200,2014,6,19,121,61,88,126,101,38
2014/6/20,1403193600,2014,6,20,44,121,61,88,126,101
2014/6/21,1403280000,2014,6,21,65,44,121,61,88,126
2014/6/22,1403366400,2014,6,22,29,65,44,121,61,88
2014/6/23,1403452800,2014,6,23,23,29,65,44,121,61
2014/6/24,1403539200,2014,6,24,49,23,29,65,44,121
2014/6/25,1403625600,2014,6,25,102,49,23,29,65,44
2014/6/26,1403712000,2014,6,26,127,102,49,23,29,65
2014/6/27,1403798400,2014,6,27,19,127,102,49,23,29
2014/6/28,1403884800,2014,6,28,19,19,127,102,49,23
2014/6/29,1403971200,2014,6,29,42,19,19,127,102,49
2014/6/30,1404057600,2014,6,30,73,42,19,19,127,102
2014/7/1,1404144000,2014,7,1,89,73,42,19,19,127
2014/7/2,1404230400,2014,7,2,55,89,73,42,19,19
2014/7/3,1404316800,2014,7,3,190,55,89,73,42,19
2014/7/4,1404403200,2014,7,4,188,190,55,89,73,42
2014/7/5,1404489600,2014,7,5,124,188,190,55,89,73
2014/7/6,1404576000,2014,7,6,202,124,188,190,55,89
2014/7/7,1404662400,2014,7,7,165,202,124,188,190,55
2014/7/8,1404748800,2014,7,8,106,165,202,124,188,190
2014/7/9,1404835200,2014,7,9,25,106,165,202,124,188
2014/7/10,1404921600,2014,7,10,27,25,106,165,202,124
2014/7/11,1405008000,2014,7,11,28,27,25,106,165,202
2014/7/12,1405094400,2014,7,12,12,28,27,25,106,165
2014/7/13,1405180800,2014,7,13,16,12,28,27,25,106
2014/7/14,1405267200,2014,7,14,26,16,12,28,27,25
2014/7/15,1405353600,2014,7,15,50,26,16,12,28,27
2014/7/16,1405440000,2014,7,16,86,50,26,16,12,28
2014/7/17,1405526400,2014,7,17,132,86,50,26,16,12
2014/7/18,1405612800,2014,7,18,142,132,86,50,26,16
2014/7/19,1405699200,2014,7,19,82,142,132,86,50,26
2014/7/20,1405785600,2014,7,20,67,82,142,132,86,50
2014/7/21,1405872000,2014,7,21,26,67,82,142,132,86
2014/7/22,1405958400,2014,7,22,12,26,67,82,142,132
2014/7/23,1406044800,2014,7,23,26,12,26,67,82,142
2014/7/24,1406131200,2014,7,24,61,26,12,26,67,82
2014/7/25,1406217600,2014,7,25,64,61,26,12,26,67
2014/7/26,1406304000,2014,7,26,94,64,61,26,12,26
2014/7/27,1406390400,2014,7,27,107,94,64,61,26,12
2014/7/28,1406476800,2014,7,28,122,107,94,64,61,26
2014/7/29,1406563200,2014,7,29,125,122,107,94,64,61
2014/7/30,1406649600,2014,7,30,120,125,122,107,94,64
2014/7/31,1406736000,2014,7,31,195,120,125,122,107,94
2014/8/1,1406822400,2014,8,1,150,195,120,125,122,107
2014/8/2,1406908800,2014,8,2,124,150,195,120,125,122
2014/8/3,1406995200,2014,8,3,111,124,150,195,120,125
2014/8/4,1407081600,2014,8,4,31,111,124,150,195,120
2014/8/5,1407168000,2014,8,5,24,31,111,124,150,195
2014/8/6,1407254400,2014,8,6,31,24,31,111,124,150
2014/8/7,1407340800,2014,8,7,62,31,24,31,111,124
2014/8/8,1407427200,2014,8,8,64,62,31,24,31,111
2014/8/9,1407513600,2014,8,9,80,64,62,31,24,31
2014/8/10,1407600000,2014,8,10,32,80,64,62,31,24
2014/8/11,1407686400,2014,8,11,24,32,80,64,62,31
2014/8/12,1407772800,2014,8,12,25,24,32,80,64,62
2014/8/13,1407859200,2014,8,13,26,25,24,32,80,64
2014/8/14,1407945600,2014,8,14,29,26,25,24,32,80
2014/8/15,1408032000,2014,8,15,35,29,26,25,24,32
2014/8/16,1408118400,2014,8,16,55,35,29,26,25,24
2014/8/17,1408204800,2014,8,17,53,55,35,29,26,25
2014/8/18,1408291200,2014,8,18,57,53,55,35,29,26
2014/8/19,1408377600,2014,8,19,84,57,53,55,35,29
2014/8/20,1408464000,2014,8,20,104,84,57,53,55,35
2014/8/21,1408550400,2014,8,21,126,104,84,57,53,55
2014/8/22,1408636800,2014,8,22,51,126,104,84,57,53
2014/8/23,1408723200,2014,8,23,107,51,126,104,84,57
2014/8/24,1408809600,2014,8,24,17,107,51,126,104,84
2014/8/25,1408896000,2014,8,25,16,17,107,51,126,104
2014/8/26,1408982400,2014,8,26,23,16,17,107,51,126
2014/8/27,1409068800,2014,8,27,47,23,16,17,107,51
2014/8/28,1409155200,2014,8,28,77,47,23,16,17,107
2014/8/29,1409241600,2014,8,29,74,77,47,23,16,17
2014/8/30,1409328000,2014,8,30,129,74,77,47,23,16
2014/8/31,1409414400,2014,8,31,64,129,74,77,47,23
2014/9/1,1409500800,2014,9,1,95,64,129,74,77,47
2014/9/2,1409587200,2014,9,2,20,95,64,129,74,77
2014/9/3,1409673600,2014,9,3,15,20,95,64,129,74
2014/9/4,1409760000,2014,9,4,40,15,20,95,64,129
2014/9/5,1409846400,2014,9,5,86,40,15,20,95,64
2014/9/6,1409932800,2014,9,6,138,86,40,15,20,95
2014/9/7,1410019200,2014,9,7,150,138,86,40,15,20
2014/9/8,1410105600,2014,9,8,14,150,138,86,40,15
2014/9/9,1410192000,2014,9,9,36,14,150,138,86,40
2014/9/10,1410278400,2014,9,10,63,36,14,150,138,86
2014/9/11,1410364800,2014,9,11,82,63,36,14,150,138
2014/9/12,1410451200,2014,9,12,73,82,63,36,14,150
2014/9/13,1410537600,2014,9,13,67,73,82,63,36,14
2014/9/14,1410624000,2014,9,14,42,67,73,82,63,36
2014/9/15,1410710400,2014,9,15,18,42,67,73,82,63
2014/9/16,1410796800,2014,9,16,38,18,42,67,73,82
2014/9/17,1410883200,2014,9,17,51,38,18,42,67,73
2014/9/18,1410969600,2014,9,18,62,51,38,18,42,67
2014/9/19,1411056000,2014,9,19,84,62,51,38,18,42
2014/9/20,1411142400,2014,9,20,120,84,62,51,38,18
2014/9/21,1411228800,2014,9,21,100,120,84,62,51,38
2014/9/22,1411315200,2014,9,22,94,100,120,84,62,51
2014/9/23,1411401600,2014,9,23,48,94,100,120,84,62
2014/9/24,1411488000,2014,9,24,34,48,94,100,120,84
2014/9/25,1411574400,2014,9,25,107,34,48,94,100,120
2014/9/26,1411660800,2014,9,26,124,107,34,48,94,100
2014/9/27,1411747200,2014,9,27,30,124,107,34,48,94
2014/9/28,1411833600,2014,9,28,56,30,124,107,34,48
2014/9/29,1411920000,2014,9,29,51,56,30,124,107,34
2014/9/30,1412006400,2014,9,30,24,51,56,30,124,107
2014/10/1,1412092800,2014,10,1,66,24,51,56,30,124
2014/10/2,1412179200,2014,10,2,55,66,24,51,56,30
2014/10/3,1412265600,2014,10,3,89,55,66,24,51,56
2014/10/4,1412352000,2014,10,4,75,89,55,66,24,51
2014/10/5,1412438400,2014,10,5,30,75,89,55,66,24
2014/10/6,1412524800,2014,10,6,25,30,75,89,55,66
2014/10/7,1412611200,2014,10,7,140,25,30,75,89,55
2014/10/8,1412697600,2014,10,8,259,140,25,30,75,89
2014/10/9,1412784000,2014,10,9,331,259,140,25,30,75
2014/10/10,1412870400,2014,10,10,300,331,259,140,25,30
2014/10/11,1412956800,2014,10,11,190,300,331,259,140,25
2014/10/12,1413043200,2014,10,12,6,190,300,331,259,140
2014/10/13,1413129600,2014,10,13,13,6,190,300,331,259
2014/10/14,1413216000,2014,10,14,43,13,6,190,300,331
2014/10/15,1413302400,2014,10,15,43,43,13,6,190,300
2014/10/16,1413388800,2014,10,16,34,43,43,13,6,190
2014/10/17,1413475200,2014,10,17,94,34,43,43,13,6
2014/10/18,1413561600,2014,10,18,152,94,34,43,43,13
2014/10/19,1413648000,2014,10,19,243,152,94,34,43,43
2014/10/20,1413734400,2014,10,20,198,243,152,94,34,43
2014/10/21,1413820800,2014,10,21,34,198,243,152,94,34
2014/10/22,1413907200,2014,10,22,71,34,198,243,152,94
2014/10/23,1413993600,2014,10,23,118,71,34,198,243,152
2014/10/24,1414080000,2014,10,24,217,118,71,34,198,243
2014/10/25,1414166400,2014,10,25,291,217,118,71,34,198
2014/10/26,1414252800,2014,10,26,59,291,217,118,71,34
2014/10/27,1414339200,2014,10,27,25,59,291,217,118,71
2014/10/28,1414425600,2014,10,28,60,25,59,291,217,118
2014/10/29,1414512000,2014,10,29,105,60,25,59,291,217
2014/10/30,1414598400,2014,10,30,155,105,60,25,59,291
2014/10/31,1414684800,2014,10,31,152,155,105,60,25,59
2014/11/1,1414771200,2014,11,1,57,152,155,105,60,25
2014/11/2,1414857600,2014,11,2,7,57,152,155,105,60
2014/11/3,1414944000,2014,11,3,24,7,57,152,155,105
2014/11/4,1415030400,2014,11,4,94,24,7,57,152,155
2014/11/5,1415116800,2014,11,5,76,94,24,7,57,152
2014/11/6,1415203200,2014,11,6,9,76,94,24,7,57
2014/11/7,1415289600,2014,11,7,42,9,76,94,24,7
2014/11/8,1415376000,2014,11,8,67,42,9,76,94,24
2014/11/9,1415462400,2014,11,9,58,67,42,9,76,94
2014/11/10,1415548800,2014,11,10,68,58,67,42,9,76
2014/11/11,1415635200,2014,11,11,34,68,58,67,42,9
2014/11/12,1415721600,2014,11,12,5,34,68,58,67,42
2014/11/13,1415808000,2014,11,13,22,5,34,68,58,67
2014/11/14,1415894400,2014,11,14,33,22,5,34,68,58
2014/11/15,1415980800,2014,11,15,93,33,22,5,34,68
2014/11/16,1416067200,2014,11,16,75,93,33,22,5,34
2014/11/17,1416153600,2014,11,17,22,75,93,33,22,5
2014/11/18,1416240000,2014,11,18,55,22,75,93,33,22
2014/11/19,1416326400,2014,11,19,218,55,22,75,93,33
2014/11/20,1416412800,2014,11,20,292,218,55,22,75,93
2014/11/21,1416499200,2014,11,21,187,292,218,55,22,75
2014/11/22,1416585600,2014,11,22,31,187,292,218,55,22
2014/11/23,1416672000,2014,11,23,118,31,187,292,218,55
2014/11/24,1416758400,2014,11,24,75,118,31,187,292,218
2014/11/25,1416844800,2014,11,25,136,75,118,31,187,292
2014/11/26,1416931200,2014,11,26,232,136,75,118,31,187
2014/11/27,1417017600,2014,11,27,73,232,136,75,118,31
2014/11/28,1417104000,2014,11,28,79,73,232,136,75,118
2014/11/29,1417190400,2014,11,29,217,79,73,232,136,75
2014/11/30,1417276800,2014,11,30,89,217,79,73,232,136
2014/12/1,1417363200,2014,12,1,10,89,217,79,73,232
2014/12/2,1417449600,2014,12,2,12,10,89,217,79,73
2014/12/3,1417536000,2014,12,3,8,12,10,89,217,79
2014/12/4,1417622400,2014,12,4,7,8,12,10,89,217
2014/12/5,1417708800,2014,12,5,25,7,8,12,10,89
2014/12/6,1417795200,2014,12,6,58,25,7,8,12,10
2014/12/7,1417881600,2014,12,7,49,58,25,7,8,12
2014/12/8,1417968000,2014,12,8,55,49,58,25,7,8
2014/12/9,1418054400,2014,12,9,217,55,49,58,25,7
2014/12/10,1418140800,2014,12,10,127,217,55,49,58,25
2014/12/11,1418227200,2014,12,11,20,127,217,55,49,58
2014/12/12,1418313600,2014,12,12,11,20,127,217,55,49
2014/12/13,1418400000,2014,12,13,42,11,20,127,217,55
2014/12/14,1418486400,2014,12,14,82,42,11,20,127,217
2014/12/15,1418572800,2014,12,15,64,82,42,11,20,127
2014/12/16,1418659200,2014,12,16,7,64,82,42,11,20
2014/12/17,1418745600,2014,12,17,67,7,64,82,42,11
2014/12/18,1418832000,2014,12,18,143,67,7,64,82,42
2014/12/19,1418918400,2014,12,19,31,143,67,7,64,82
2014/12/20,1419004800,2014,12,20,9,31,143,67,7,64
2014/12/21,1419091200,2014,12,21,15,9,31,143,67,7
2014/12/22,1419177600,2014,12,22,69,15,9,31,143,67
2014/12/23,1419264000,2014,12,23,73,69,15,9,31,143
2014/12/24,1419350400,2014,12,24,12,73,69,15,9,31
2014/12/25,1419436800,2014,12,25,27,12,73,69,15,9
2014/12/26,1419523200,2014,12,26,115,27,12,73,69,15
2014/12/27,1419609600,2014,12,27,190,115,27,12,73,69
2014/12/28,1419696000,2014,12,28,121,190,115,27,12,73
2014/12/29,1419782400,2014,12,29,96,121,190,115,27,12
2014/12/30,1419868800,2014,12,30,24,96,121,190,115,27
2014/12/31,1419955200,2014,12,31,6,24,96,121,190,115
2015/1/1,1420041600,2015,1,1,41,6,24,96,121,190
2015/1/2,1420128000,2015,1,2,51,41,6,24,96,121
2015/1/3,1420214400,2015,1,3,148,51,41,6,24,96
2015/1/4,1420300800,2015,1,4,174,148,51,41,6,24
2015/1/5,1420387200,2015,1,5,107,174,148,51,41,6
2015/1/6,1420473600,2015,1,6,34,107,174,148,51,41
2015/1/7,1420560000,2015,1,7,62,34,107,174,148,51
2015/1/8,1420646400,2015,1,8,124,62,34,107,174,148
2015/1/9,1420732800,2015,1,9,73,124,62,34,107,174
2015/1/10,1420819200,2015,1,10,147,73,124,62,34,107
2015/1/11,1420905600,2015,1,11,37,147,73,124,62,34
2015/1/12,1420992000,2015,1,12,117,37,147,73,124,62
2015/1/13,1421078400,2015,1,13,156,117,37,147,73,124
2015/1/14,1421164800,2015,1,14,214,156,117,37,147,73
2015/1/15,1421251200,2015,1,15,328,214,156,117,37,147
2015/1/16,1421337600,2015,1,16,112,328,214,156,117,37
2015/1/17,1421424000,2015,1,17,60,112,328,214,156,117
2015/1/18,1421510400,2015,1,18,68,60,112,328,214,156
2015/1/19,1421596800,2015,1,19,43,68,60,112,328,214
2015/1/20,1421683200,2015,1,20,84,43,68,60,112,328
2015/1/21,1421769600,2015,1,21,19,84,43,68,60,112
2015/1/22,1421856000,2015,1,22,98,19,84,43,68,60
2015/1/23,1421942400,2015,1,23,206,98,19,84,43,68
2015/1/24,1422028800,2015,1,24,96,206,98,19,84,43
2015/1/25,1422115200,2015,1,25,134,96,206,98,19,84
2015/1/26,1422201600,2015,1,26,102,134,96,206,98,19
2015/1/27,1422288000,2015,1,27,17,102,134,96,206,98
2015/1/28,1422374400,2015,1,28,37,17,102,134,96,206
2015/1/29,1422460800,2015,1,29,63,37,17,102,134,96
2015/1/30,1422547200,2015,1,30,12,63,37,17,102,134
2015/1/31,1422633600,2015,1,31,30,12,63,37,17,102
2015/2/1,1422720000,2015,2,1,77,30,12,63,37,17
2015/2/2,1422806400,2015,2,2,139,77,30,12,63,37
2015/2/3,1422892800,2015,2,3,117,139,77,30,12,63
2015/2/4,1422979200,2015,2,4,10,117,139,77,30,12
2015/2/5,1423065600,2015,2,5,27,10,117,139,77,30
2015/2/6,1423152000,2015,2,6,65,27,10,117,139,77
2015/2/7,1423238400,2015,2,7,13,65,27,10,117,139
2015/2/8,1423324800,2015,2,8,24,13,65,27,10,117
2015/2/9,1423411200,2015,2,9,109,24,13,65,27,10
2015/2/10,1423497600,2015,2,10,123,109,24,13,65,27
2015/2/11,1423584000,2015,2,11,41,123,109,24,13,65
2015/2/12,1423670400,2015,2,12,32,41,123,109,24,13
2015/2/13,1423756800,2015,2,13,121,32,41,123,109,24
2015/2/14,1423843200,2015,2,14,236,121,32,41,123,109
2015/2/15,1423929600,2015,2,15,284,236,121,32,41,123
2015/2/16,1424016000,2015,2,16,121,284,236,121,32,41
2015/2/17,1424102400,2015,2,17,22,121,284,236,121,32
2015/2/18,1424188800,2015,2,18,46,22,121,284,236,121
2015/2/19,1424275200,2015,2,19,218,46,22,121,284,236
2015/2/20,1424361600,2015,2,20,138,218,46,22,121,284
2015/2/21,1424448000,2015,2,21,152,138,218,46,22,121
2015/2/22,1424534400,2015,2,22,42,152,138,218,46,22
2015/2/23,1424620800,2015,2,23,55,42,152,138,218,46
2015/2/24,1424707200,2015,2,24,153,55,42,152,138,218
2015/2/25,1424793600,2015,2,25,77,153,55,42,152,138
2015/2/26,1424880000,2015,2,26,13,77,153,55,42,152
2015/2/27,1424966400,2015,2,27,23,13,77,153,55,42
2015/2/28,1425052800,2015,2,28,123,23,13,77,153,55
2015/3/1,1425139200,2015,3,1,45,123,23,13,77,153
2015/3/2,1425225600,2015,3,2,53,45,123,23,13,77
2015/3/3,1425312000,2015,3,3,8,53,45,123,23,13
2015/3/4,1425398400,2015,3,4,24,8,53,45,123,23
2015/3/5,1425484800,2015,3,5,110,24,8,53,45,123
2015/3/6,1425571200,2015,3,6,195,110,24,8,53,45
2015/3/7,1425657600,2015,3,7,231,195,110,24,8,53
2015/3/8,1425744000,2015,3,8,129,231,195,110,24,8
2015/3/9,1425830400,2015,3,9,7,129,231,195,110,24
2015/3/10,1425916800,2015,3,10,30,7,129,231,195,110
2015/3/11,1426003200,2015,3,11,37,30,7,129,231,195
2015/3/12,1426089600,2015,3,12,61,37,30,7,129,231
2015/3/13,1426176000,2015,3,13,64,61,37,30,7,129
2015/3/14,1426262400,2015,3,14,97,64,61,37,30,7
2015/3/15,1426348800,2015,3,15,103,97,64,61,37,30
2015/3/16,1426435200,2015,3,16,207,103,97,64,61,37
2015/3/17,1426521600,2015,3,17,183,207,103,97,64,61
2015/3/18,1426608000,2015,3,18,47,183,207,103,97,64
2015/3/19,1426694400,2015,3,19,81,47,183,207,103,97
2015/3/20,1426780800,2015,3,20,44,81,47,183,207,103
2015/3/21,1426867200,2015,3,21,19,44,81,47,183,207
2015/3/22,1426953600,2015,3,22,20,19,44,81,47,183
2015/3/23,1427040000,2015,3,23,34,20,19,44,81,47
2015/3/24,1427126400,2015,3,24,77,34,20,19,44,81
2015/3/25,1427212800,2015,3,25,123,77,34,20,19,44
2015/3/26,1427299200,2015,3,26,105,123,77,34,20,19
2015/3/27,1427385600,2015,3,27,83,105,123,77,34,20
2015/3/28,1427472000,2015,3,28,64,83,105,123,77,34
2015/3/29,1427558400,2015,3,29,75,64,83,105,123,77
2015/3/30,1427644800,2015,3,30,148,75,64,83,105,123
2015/3/31,1427731200,2015,3,31,152,148,75,64,83,105
2015/4/1,1427817600,2015,4,1,59,152,148,75,64,83
2015/4/2,1427904000,2015,4,2,35,59,152,148,75,64
2015/4/3,1427990400,2015,4,3,28,35,59,152,148,75
2015/4/4,1428076800,2015,4,4,62,28,35,59,152,148
2015/4/5,1428163200,2015,4,5,53,62,28,35,59,152
2015/4/6,1428249600,2015,4,6,20,53,62,28,35,59
2015/4/7,1428336000,2015,4,7,23,20,53,62,28,35
2015/4/8,1428422400,2015,4,8,96,23,20,53,62,28
2015/4/9,1428508800,2015,4,9,162,96,23,20,53,62
2015/4/10,1428595200,2015,4,10,150,162,96,23,20,53
2015/4/11,1428681600,2015,4,11,141,150,162,96,23,20
2015/4/12,1428768000,2015,4,12,12,141,150,162,96,23
2015/4/13,1428854400,2015,4,13,26,12,141,150,162,96
2015/4/14,1428940800,2015,4,14,54,26,12,141,150,162
2015/4/15,1429027200,2015,4,15,109,54,26,12,141,150
2015/4/16,1429113600,2015,4,16,26,109,54,26,12,141
2015/4/17,1429200000,2015,4,17,67,26,109,54,26,12
2015/4/18,1429286400,2015,4,18,138,67,26,109,54,26
2015/4/19,1429372800,2015,4,19,60,138,67,26,109,54
2015/4/20,1429459200,2015,4,20,67,60,138,67,26,109
2015/4/21,1429545600,2015,4,21,63,67,60,138,67,26
2015/4/22,1429632000,2015,4,22,43,63,67,60,138,67
2015/4/23,1429718400,2015,4,23,54,43,63,67,60,138
2015/4/24,1429804800,2015,4,24,52,54,43,63,67,60
2015/4/25,1429891200,2015,4,25,72,52,54,43,63,67
2015/4/26,1429977600,2015,4,26,98,72,52,54,43,63
2015/4/27,1430064000,2015,4,27,81,98,72,52,54,43
2015/4/28,1430150400,2015,4,28,43,81,98,72,52,54
2015/4/29,1430236800,2015,4,29,115,43,81,98,72,52
2015/4/30,1430323200,2015,4,30,114,115,43,81,98,72
2015/5/1,1430409600,2015,5,1,125,114,115,43,81,98
2015/5/2,1430496000,2015,5,2,45,125,114,115,43,81
2015/5/3,1430582400,2015,5,3,40,45,125,114,115,43
2015/5/4,1430668800,2015,5,4,23,40,45,125,114,115
2015/5/5,1430755200,2015,5,5,43,23,40,45,125,114
2015/5/6,1430841600,2015,5,6,19,43,23,40,45,125
2015/5/7,1430928000,2015,5,7,42,19,43,23,40,45
2015/5/8,1431014400,2015,5,8,52,42,19,43,23,40
2015/5/9,1431100800,2015,5,9,39,52,42,19,43,23
2015/5/10,1431187200,2015,5,10,34,39,52,42,19,43
2015/5/11,1431273600,2015,5,11,24,34,39,52,42,19
2015/5/12,1431360000,2015,5,12,19,24,34,39,52,42
2015/5/13,1431446400,2015,5,13,57,19,24,34,39,52
2015/5/14,1431532800,2015,5,14,20,57,19,24,34,39
2015/5/15,1431619200,2015,5,15,23,20,57,19,24,34
2015/5/16,1431705600,2015,5,16,46,23,20,57,19,24
2015/5/17,1431792000,2015,5,17,126,46,23,20,57,19
2015/5/18,1431878400,2015,5,18,55,126,46,23,20,57
2015/5/19,1431964800,2015,5,19,11,55,126,46,23,20
2015/5/20,1432051200,2015,5,20,16,11,55,126,46,23
2015/5/21,1432137600,2015,5,21,33,16,11,55,126,46
2015/5/22,1432224000,2015,5,22,52,33,16,11,55,126
2015/5/23,1432310400,2015,5,23,95,52,33,16,11,55
2015/5/24,1432396800,2015,5,24,115,95,52,33,16,11
2015/5/25,1432483200,2015,5,25,101,115,95,52,33,16
2015/5/26,1432569600,2015,5,26,87,101,115,95,52,33
2015/5/27,1432656000,2015,5,27,92,87,101,115,95,52
2015/5/28,1432742400,2015,5,28,116,92,87,101,115,95
2015/5/29,1432828800,2015,5,29,61,116,92,87,101,115
2015/5/30,1432915200,2015,5,30,54,61,116,92,87,101
2015/5/31,1433001600,2015,5,31,55,54,61,116,92,87
2015/6/1,1433088000,2015,6,1,88,55,54,61,116,92
2015/6/2,1433174400,2015,6,2,30,88,55,54,61,116
2015/6/3,1433260800,2015,6,3,32,30,88,55,54,61
2015/6/4,1433347200,2015,6,4,51,32,30,88,55,54
2015/6/5,1433433600,2015,6,5,49,51,32,30,88,55
2015/6/6,1433520000,2015,6,6,25,49,51,32,30,88
2015/6/7,1433606400,2015,6,7,14,25,49,51,32,30
2015/6/8,1433692800,2015,6,8,18,14,25,49,51,32
2015/6/9,1433779200,2015,6,9,49,18,14,25,49,51
2015/6/10,1433865600,2015,6,10,75,49,18,14,25,49
2015/6/11,1433952000,2015,6,11,20,75,49,18,14,25
2015/6/12,1434038400,2015,6,12,8,20,75,49,18,14
2015/6/13,1434124800,2015,6,13,11,8,20,75,49,18
2015/6/14,1434211200,2015,6,14,19,11,8,20,75,49
2015/6/15,1434297600,2015,6,15,85,19,11,8,20,75
2015/6/16,1434384000,2015,6,16,104,85,19,11,8,20
2015/6/17,1434470400,2015,6,17,42,104,85,19,11,8
2015/6/18,1434556800,2015,6,18,19,42,104,85,19,11
2015/6/19,1434643200,2015,6,19,14,19,42,104,85,19
2015/6/20,1434729600,2015,6,20,23,14,19,42,104,85
2015/6/21,1434816000,2015,6,21,41,23,14,19,42,104
2015/6/22,1434902400,2015,6,22,90,41,23,14,19,42
2015/6/23,1434988800,2015,6,23,181,90,41,23,14,19
2015/6/24,1435075200,2015,6,24,121,181,90,41,23,14
2015/6/25,1435161600,2015,6,25,125,121,181,90,41,23
2015/6/26,1435248000,2015,6,26,106,125,121,181,90,41
2015/6/27,1435334400,2015,6,27,89,106,125,121,181,90
2015/6/28,1435420800,2015,6,28,148,89,106,125,121,181
2015/6/29,1435507200,2015,6,29,118,148,89,106,125,121
2015/6/30,1435593600,2015,6,30,15,118,148,89,106,125
2015/7/1,1435680000,2015,7,1,18,15,118,148,89,106
2015/7/2,1435766400,2015,7,2,8,18,15,118,148,89
2015/7/3,1435852800,2015,7,3,24,8,18,15,118,148
2015/7/4,1435939200,2015,7,4,33,24,8,18,15,118
2015/7/5,1436025600,2015,7,5,62,33,24,8,18,15
2015/7/6,1436112000,2015,7,6,69,62,33,24,8,18
2015/7/7,1436198400,2015,7,7,67,69,62,33,24,8
2015/7/8,1436284800,2015,7,8,125,67,69,62,33,24
2015/7/9,1436371200,2015,7,9,72,125,67,69,62,33
2015/7/10,1436457600,2015,7,10,50,72,125,67,69,62
2015/7/11,1436544000,2015,7,11,103,50,72,125,67,69
2015/7/12,1436630400,2015,7,12,108,103,50,72,125,67
2015/7/13,1436716800,2015,7,13,49,108,103,50,72,125
2015/7/14,1436803200,2015,7,14,35,49,108,103,50,72
2015/7/15,1436889600,2015,7,15,34,35,49,108,103,50
2015/7/16,1436976000,2015,7,16,37,34,35,49,108,103
2015/7/17,1437062400,2015,7,17,35,37,34,35,49,108
2015/7/18,1437148800,2015,7,18,47,35,37,34,35,49
2015/7/19,1437235200,2015,7,19,66,47,35,37,34,35
2015/7/20,1437321600,2015,7,20,89,66,47,35,37,34
2015/7/21,1437408000,2015,7,21,133,89,66,47,35,37
2015/7/22,1437494400,2015,7,22,62,133,89,66,47,35
2015/7/23,1437580800,2015,7,23,41,62,133,89,66,47
2015/7/24,1437667200,2015,7,24,50,41,62,133,89,66
2015/7/25,1437753600,2015,7,25,90,50,41,62,133,89
2015/7/26,1437840000,2015,7,26,104,90,50,41,62,133
2015/7/27,1437926400,2015,7,27,75,104,90,50,41,62
2015/7/28,1438012800,2015,7,28,52,75,104,90,50,41
2015/7/29,1438099200,2015,7,29,86,52,75,104,90,50
2015/7/30,1438185600,2015,7,30,44,86,52,75,104,90
2015/7/31,1438272000,2015,7,31,26,44,86,52,75,104
2015/8/1,1438358400,2015,8,1,67,26,44,86,52,75
2015/8/2,1438444800,2015,8,2,74,67,26,44,86,52
2015/8/3,1438531200,2015,8,3,60,74,67,26,44,86
2015/8/4,1438617600,2015,8,4,21,60,74,67,26,44
2015/8/5,1438704000,2015,8,5,64,21,60,74,67,26
2015/8/6,1438790400,2015,8,6,58,64,21,60,74,67
2015/8/7,1438876800,2015,8,7,90,58,64,21,60,74
2015/8/8,1438963200,2015,8,8,40,90,58,64,21,60
2015/8/9,1439049600,2015,8,9,53,40,90,58,64,21
2015/8/10,1439136000,2015,8,10,42,53,40,90,58,64
2015/8/11,1439222400,2015,8,11,91,42,53,40,90,58
2015/8/12,1439308800,2015,8,12,81,91,42,53,40,90
2015/8/13,1439395200,2015,8,13,120,81,91,42,53,40
2015/8/14,1439481600,2015,8,14,58,120,81,91,42,53
2015/8/15,1439568000,2015,8,15,22,58,120,81,91,42
2015/8/16,1439654400,2015,8,16,38,22,58,120,81,91
2015/8/17,1439740800,2015,8,17,80,38,22,58,120,81
2015/8/18,1439827200,2015,8,18,48,80,38,22,58,120
2015/8/19,1439913600,2015,8,19,51,48,80,38,22,58
2015/8/20,1440000000,2015,8,20,33,51,48,80,38,22
2015/8/21,1440086400,2015,8,21,14,33,51,48,80,38
2015/8/22,1440172800,2015,8,22,17,14,33,51,48,80
2015/8/23,1440259200,2015,8,23,21,17,14,33,51,48
2015/8/24,1440345600,2015,8,24,13,21,17,14,33,51
2015/8/25,1440432000,2015,8,25,14,13,21,17,14,33
2015/8/26,1440518400,2015,8,26,12,14,13,21,17,14
2015/8/27,1440604800,2015,8,27,12,12,14,13,21,17
2015/8/28,1440691200,2015,8,28,16,12,12,14,13,21
2015/8/29,1440777600,2015,8,29,28,16,12,12,14,13
2015/8/30,1440864000,2015,8,30,28,28,16,12,12,14
2015/8/31,1440950400,2015,8,31,25,28,28,16,12,12
2015/9/1,1441036800,2015,9,1,11,25,28,28,16,12
2015/9/2,1441123200,2015,9,2,10,11,25,28,28,16
2015/9/3,1441209600,2015,9,3,15,10,11,25,28,28
2015/9/4,1441296000,2015,9,4,46,15,10,11,25,28
2015/9/5,1441382400,2015,9,5,18,46,15,10,11,25
2015/9/6,1441468800,2015,9,6,17,18,46,15,10,11
2015/9/7,1441555200,2015,9,7,25,17,18,46,15,10
2015/9/8,1441641600,2015,9,8,52,25,17,18,46,15
2015/9/9,1441728000,2015,9,9,32,52,25,17,18,46
2015/9/10,1441814400,2015,9,10,8,32,52,25,17,18
2015/9/11,1441900800,2015,9,11,9,8,32,52,25,17
2015/9/12,1441987200,2015,9,12,9,9,8,32,52,25
2015/9/13,1442073600,2015,9,13,20,9,9,8,32,52
2015/9/14,1442160000,2015,9,14,66,20,9,9,8,32
2015/9/15,1442246400,2015,9,15,105,66,20,9,9,8
2015/9/16,1442332800,2015,9,16,128,105,66,20,9,9
2015/9/17,1442419200,2015,9,17,151,128,105,66,20,9
2015/9/18,1442505600,2015,9,18,76,151,128,105,66,20
2015/9/19,1442592000,2015,9,19,23,76,151,128,105,66
2015/9/20,1442678400,2015,9,20,86,23,76,151,128,105
2015/9/21,1442764800,2015,9,21,101,86,23,76,151,128
2015/9/22,1442851200,2015,9,22,135,101,86,23,76,151
2015/9/23,1442937600,2015,9,23,32,135,101,86,23,76
2015/9/24,1443024000,2015,9,24,94,32,135,101,86,23
2015/9/25,1443110400,2015,9,25,22,94,32,135,101,86
2015/9/26,1443196800,2015,9,26,34,22,94,32,135,101
2015/9/27,1443283200,2015,9,27,48,34,22,94,32,135
2015/9/28,1443369600,2015,9,28,49,48,34,22,94,32
2015/9/29,1443456000,2015,9,29,44,49,48,34,22,94
2015/9/30,1443542400,2015,9,30,30,44,49,48,34,22
2015/10/1,1443628800,2015,10,1,14,30,44,49,48,34
2015/10/2,1443715200,2015,10,2,30,14,30,44,49,48
2015/10/3,1443801600,2015,10,3,28,30,14,30,44,49
2015/10/4,1443888000,2015,10,4,114,28,30,14,30,44
2015/10/5,1443974400,2015,10,5,222,114,28,30,14,30
2015/10/6,1444060800,2015,10,6,293,222,114,28,30,14
2015/10/7,1444147200,2015,10,7,260,293,222,114,28,30
2015/10/8,1444233600,2015,10,8,11,260,293,222,114,28
2015/10/9,1444320000,2015,10,9,16,11,260,293,222,114
2015/10/10,1444406400,2015,10,10,8,16,11,260,293,222
2015/10/11,1444492800,2015,10,11,10,8,16,11,260,293
2015/10/12,1444579200,2015,10,12,18,10,8,16,11,260
2015/10/13,1444665600,2015,10,13,35,18,10,8,16,11
2015/10/14,1444752000,2015,10,14,103,35,18,10,8,16
2015/10/15,1444838400,2015,10,15,109,103,35,18,10,8
2015/10/16,1444924800,2015,10,16,203,109,103,35,18,10
2015/10/17,1445011200,2015,10,17,294,203,109,103,35,18
2015/10/18,1445097600,2015,10,18,46,294,203,109,103,35
2015/10/19,1445184000,2015,10,19,57,46,294,203,109,103
2015/10/20,1445270400,2015,10,20,74,57,46,294,203,109
2015/10/21,1445356800,2015,10,21,51,74,57,46,294,203
2015/10/22,1445443200,2015,10,22,29,51,74,57,46,294
2015/10/23,1445529600,2015,10,23,54,29,51,74,57,46
2015/10/24,1445616000,2015,10,24,55,54,29,51,74,57
2015/10/25,1445702400,2015,10,25,37,55,54,29,51,74
2015/10/26,1445788800,2015,10,26,28,37,55,54,29,51
2015/10/27,1445875200,2015,10,27,15,28,37,55,54,29
2015/10/28,1445961600,2015,10,28,8,15,28,37,55,54
2015/10/29,1446048000,2015,10,29,7,8,15,28,37,55
2015/10/30,1446134400,2015,10,30,25,7,8,15,28,37
2015/10/31,1446220800,2015,10,31,43,25,7,8,15,28
2015/11/1,1446307200,2015,11,1,72,43,25,7,8,15
2015/11/2,1446393600,2015,11,2,76,72,43,25,7,8
2015/11/3,1446480000,2015,11,3,149,76,72,43,25,7
2015/11/4,1446566400,2015,11,4,210,149,76,72,43,25
2015/11/5,1446652800,2015,11,5,110,210,149,76,72,43
2015/11/6,1446739200,2015,11,6,20,110,210,149,76,72
2015/11/7,1446825600,2015,11,7,19,20,110,210,149,76
2015/11/8,1446912000,2015,11,8,60,19,20,110,210,149
2015/11/9,1446998400,2015,11,9,124,60,19,20,110,210
2015/11/10,1447084800,2015,11,10,132,124,60,19,20,110
2015/11/11,1447171200,2015,11,11,104,132,124,60,19,20
2015/11/12,1447257600,2015,11,12,155,104,132,124,60,19
2015/11/13,1447344000,2015,11,13,208,155,104,132,124,60
2015/11/14,1447430400,2015,11,14,274,208,155,104,132,124
2015/11/15,1447516800,2015,11,15,196,274,208,155,104,132
2015/11/16,1447603200,2015,11,16,58,196,274,208,155,104
2015/11/17,1447689600,2015,11,17,60,58,196,274,208,155
2015/11/18,1447776000,2015,11,18,68,60,58,196,274,208
2015/11/19,1447862400,2015,11,19,76,68,60,58,196,274
2015/11/20,1447948800,2015,11,20,65,76,68,60,58,196
2015/11/21,1448035200,2015,11,21,43,65,76,68,60,58
2015/11/22,1448121600,2015,11,22,50,43,65,76,68,60
2015/11/23,1448208000,2015,11,23,27,50,43,65,76,68
2015/11/24,1448294400,2015,11,24,45,27,50,43,65,76
2015/11/25,1448380800,2015,11,25,50,45,27,50,43,65
2015/11/26,1448467200,2015,11,26,38,50,45,27,50,43
2015/11/27,1448553600,2015,11,27,214,38,50,45,27,50
2015/11/28,1448640000,2015,11,28,258,214,38,50,45,27
2015/11/29,1448726400,2015,11,29,252,258,214,38,50,45
2015/11/30,1448812800,2015,11,30,343,252,258,214,38,50
2015/12/1,1448899200,2015,12,1,464,343,252,258,214,38
2015/12/2,1448985600,2015,12,2,7,464,343,252,258,214
2015/12/3,1449072000,2015,12,3,10,7,464,343,252,258
2015/12/4,1449158400,2015,12,4,31,10,7,464,343,252
2015/12/5,1449244800,2015,12,5,49,31,10,7,464,343
2015/12/6,1449331200,2015,12,6,132,49,31,10,7,464
2015/12/7,1449417600,2015,12,7,180,132,49,31,10,7
2015/12/8,1449504000,2015,12,8,245,180,132,49,31,10
2015/12/9,1449590400,2015,12,9,244,245,180,132,49,31
2015/12/10,1449676800,2015,12,10,96,244,245,180,132,49
2015/12/11,1449763200,2015,12,11,48,96,244,245,180,132
2015/12/12,1449849600,2015,12,12,130,48,96,244,245,180
2015/12/13,1449936000,2015,12,13,179,130,48,96,244,245
2015/12/14,1450022400,2015,12,14,157,179,130,48,96,244
2015/12/15,1450108800,2015,12,15,7,157,179,130,48,96
2015/12/16,1450195200,2015,12,16,8,7,157,179,130,48
2015/12/17,1450281600,2015,12,17,62,8,7,157,179,130
2015/12/18,1450368000,2015,12,18,58,62,8,7,157,179
2015/12/19,1450454400,2015,12,19,127,58,62,8,7,157
2015/12/20,1450540800,2015,12,20,199,127,58,62,8,7
2015/12/21,1450627200,2015,12,21,230,199,127,58,62,8
2015/12/22,1450713600,2015,12,22,297,230,199,127,58,62
2015/12/23,1450800000,2015,12,23,255,297,230,199,127,58
2015/12/24,1450886400,2015,12,24,159,255,297,230,199,127
2015/12/25,1450972800,2015,12,25,477,159,255,297,230,199
2015/12/26,1451059200,2015,12,26,265,477,159,255,297,230
2015/12/27,1451145600,2015,12,27,49,265,477,159,255,297
2015/12/28,1451232000,2015,12,28,114,49,265,477,159,255
2015/12/29,1451318400,2015,12,29,279,114,49,265,477,159
2015/12/30,1451404800,2015,12,30,78,279,114,49,265,477
2015/12/31,1451491200,2015,12,31,66,78,279,114,49,265
2016/1/1,1451577600,2016,1,1,176,66,78,279,114,49
2016/1/2,1451664000,2016,1,2,266,176,66,78,279,114
2016/1/3,1451750400,2016,1,3,247,266,176,66,78,279
2016/1/4,1451836800,2016,1,4,37,247,266,176,66,78
2016/1/5,1451923200,2016,1,5,34,37,247,266,176,66
2016/1/6,1452009600,2016,1,6,25,34,37,247,266,176
2016/1/7,1452096000,2016,1,7,13,25,34,37,247,266
2016/1/8,1452182400,2016,1,8,35,13,25,34,37,247
2016/1/9,1452268800,2016,1,9,76,35,13,25,34,37
2016/1/10,1452355200,2016,1,10,46,76,35,13,25,34
2016/1/11,1452441600,2016,1,11,11,46,76,35,13,25
2016/1/12,1452528000,2016,1,12,14,11,46,76,35,13
2016/1/13,1452614400,2016,1,13,26,14,11,46,76,35
2016/1/14,1452700800,2016,1,14,73,26,14,11,46,76
2016/1/15,1452787200,2016,1,15,100,73,26,14,11,46
2016/1/16,1452873600,2016,1,16,123,100,73,26,14,11
2016/1/17,1452960000,2016,1,17,37,123,100,73,26,14
2016/1/18,1453046400,2016,1,18,10,37,123,100,73,26
2016/1/19,1453132800,2016,1,19,62,10,37,123,100,73
2016/1/20,1453219200,2016,1,20,117,62,10,37,123,100
2016/1/21,1453305600,2016,1,21,131,117,62,10,37,123
2016/1/22,1453392000,2016,1,22,13,131,117,62,10,37
2016/1/23,1453478400,2016,1,23,9,13,131,117,62,10
2016/1/24,1453564800,2016,1,24,13,9,13,131,117,62
2016/1/25,1453651200,2016,1,25,28,13,9,13,131,117
2016/1/26,1453737600,2016,1,26,35,28,13,9,13,131
2016/1/27,1453824000,2016,1,27,98,35,28,13,9,13
2016/1/28,1453910400,2016,1,28,121,98,35,28,13,9
2016/1/29,1453996800,2016,1,29,62,121,98,35,28,13
2016/1/30,1454083200,2016,1,30,50,62,121,98,35,28
2016/1/31,1454169600,2016,1,31,18,50,62,121,98,35
2016/2/1,1454256000,2016,2,1,13,18,50,62,121,98
2016/2/2,1454342400,2016,2,2,29,13,18,50,62,121
2016/2/3,1454428800,2016,2,3,35,29,13,18,50,62
2016/2/4,1454515200,2016,2,4,13,35,29,13,18,50
2016/2/5,1454601600,2016,2,5,10,13,35,29,13,18
2016/2/6,1454688000,2016,2,6,31,10,13,35,29,13
2016/2/7,1454774400,2016,2,7,50,31,10,13,35,29
2016/2/8,1454860800,2016,2,8,188,50,31,10,13,35
2016/2/9,1454947200,2016,2,9,43,188,50,31,10,13
2016/2/10,1455033600,2016,2,10,97,43,188,50,31,10
2016/2/11,1455120000,2016,2,11,152,97,43,188,50,31
2016/2/12,1455206400,2016,2,12,144,152,97,43,188,50
2016/2/13,1455292800,2016,2,13,9,144,152,97,43,188
2016/2/14,1455379200,2016,2,14,7,9,144,152,97,43
2016/2/15,1455465600,2016,2,15,7,7,9,144,152,97
2016/2/16,1455552000,2016,2,16,8,7,7,9,144,152
2016/2/17,1455638400,2016,2,17,46,8,7,7,9,144
2016/2/18,1455724800,2016,2,18,14,46,8,7,7,9
2016/2/19,1455811200,2016,2,19,15,14,46,8,7,7
2016/2/20,1455897600,2016,2,20,16,15,14,46,8,7
2016/2/21,1455984000,2016,2,21,81,16,15,14,46,8
2016/2/22,1456070400,2016,2,22,68,81,16,15,14,46
2016/2/23,1456156800,2016,2,23,11,68,81,16,15,14
2016/2/24,1456243200,2016,2,24,26,11,68,81,16,15
2016/2/25,1456329600,2016,2,25,25,26,11,68,81,16
2016/2/26,1456416000,2016,2,26,36,25,26,11,68,81
2016/2/27,1456502400,2016,2,27,22,36,25,26,11,68
2016/2/28,1456588800,2016,2,28,31,22,36,25,26,11
2016/2/29,1456675200,2016,2,29,35,31,22,36,25,26
2016/3/1,1456761600,2016,3,1,120,35,31,22,36,25
2016/3/2,1456848000,2016,3,2,162,120,35,31,22,36
2016/3/3,1456934400,2016,3,3,283,162,120,35,31,22
2016/3/4,1457020800,2016,3,4,315,283,162,120,35,31
2016/3/5,1457107200,2016,3,5,58,315,283,162,120,35
2016/3/6,1457193600,2016,3,6,73,58,315,283,162,120
2016/3/7,1457280000,2016,3,7,34,73,58,315,283,162
2016/3/8,1457366400,2016,3,8,10,34,73,58,315,283
2016/3/9,1457452800,2016,3,9,10,10,34,73,58,315
2016/3/10,1457539200,2016,3,10,11,10,10,34,73,58
2016/3/11,1457625600,2016,3,11,24,11,10,10,34,73
2016/3/12,1457712000,2016,3,12,110,24,11,10,10,34
2016/3/13,1457798400,2016,3,13,30,110,24,11,10,10
2016/3/14,1457884800,2016,3,14,77,30,110,24,11,10
2016/3/15,1457971200,2016,3,15,143,77,30,110,24,11
2016/3/16,1458057600,2016,3,16,250,143,77,30,110,24
2016/3/17,1458144000,2016,3,17,288,250,143,77,30,110
2016/3/18,1458230400,2016,3,18,177,288,250,143,77,30
2016/3/19,1458316800,2016,3,19,65,177,288,250,143,77
2016/3/20,1458403200,2016,3,20,66,65,177,288,250,143
2016/3/21,1458489600,2016,3,21,124,66,65,177,288,250
2016/3/22,1458576000,2016,3,22,105,124,66,65,177,288
2016/3/23,1458662400,2016,3,23,16,105,124,66,65,177
2016/3/24,1458748800,2016,3,24,13,16,105,124,66,65
2016/3/25,1458835200,2016,3,25,17,13,16,105,124,66
2016/3/26,1458921600,2016,3,26,12,17,13,16,105,124
2016/3/27,1459008000,2016,3,27,17,12,17,13,16,105
2016/3/28,1459094400,2016,3,28,70,17,12,17,13,16
2016/3/29,1459180800,2016,3,29,19,70,17,12,17,13
2016/3/30,1459267200,2016,3,30,30,19,70,17,12,17
2016/3/31,1459353600,2016,3,31,149,30,19,70,17,12
2016/4/1,1459440000,2016,4,1,35,149,30,19,70,17
2016/4/2,1459526400,2016,4,2,9,35,149,30,19,70
2016/4/3,1459612800,2016,4,3,20,9,35,149,30,19
2016/4/4,1459699200,2016,4,4,77,20,9,35,149,30
2016/4/5,1459785600,2016,4,5,113,77,20,9,35,149
2016/4/6,1459872000,2016,4,6,144,113,77,20,9,35
2016/4/7,1459958400,2016,4,7,81,144,113,77,20,9
2016/4/8,1460044800,2016,4,8,25,81,144,113,77,20
2016/4/9,1460131200,2016,4,9,73,25,81,144,113,77
2016/4/10,1460217600,2016,4,10,54,73,25,81,144,113
2016/4/11,1460304000,2016,4,11,41,54,73,25,81,144
2016/4/12,1460390400,2016,4,12,79,41,54,73,25,81
2016/4/13,1460476800,2016,4,13,120,79,41,54,73,25
2016/4/14,1460563200,2016,4,14,32,120,79,41,54,73
2016/4/15,1460649600,2016,4,15,59,32,120,79,41,54
2016/4/17,1460822400,2016,4,17,16,59,32,120,79,41
2016/4/18,1460908800,2016,4,18,19,16,59,32,120,79
2016/4/19,1460995200,2016,4,19,73,19,16,59,32,120
2016/4/20,1461081600,2016,4,20,68,73,19,16,59,32
2016/4/21,1461168000,2016,4,21,96,68,73,19,16,59
2016/4/22,1461254400,2016,4,22,33,96,68,73,19,16
2016/4/23,1461340800,2016,4,23,23,33,96,68,73,19
2016/4/24,1461427200,2016,4,24,85,23,33,96,68,73
2016/4/25,1461513600,2016,4,25,90,85,23,33,96,68
2016/4/26,1461600000,2016,4,26,71,90,85,23,33,96
2016/4/27,1461686400,2016,4,27,91,71,90,85,23,33
2016/4/28,1461772800,2016,4,28,81,91,71,90,85,23
2016/4/29,1461859200,2016,4,29,127,81,91,71,90,85
2016/4/30,1461945600,2016,4,30,159,127,81,91,71,90
2016/5/1,1462032000,2016,5,1,184,159,127,81,91,71
2016/5/2,1462118400,2016,5,2,50,184,159,127,81,91
2016/5/3,1462204800,2016,5,3,23,50,184,159,127,81
2016/5/4,1462291200,2016,5,4,29,23,50,184,159,127
2016/5/5,1462377600,2016,5,5,62,29,23,50,184,159
2016/5/6,1462464000,2016,5,6,57,62,29,23,50,184
2016/5/7,1462550400,2016,5,7,23,57,62,29,23,50
2016/5/8,1462636800,2016,5,8,60,23,57,62,29,23
2016/5/9,1462723200,2016,5,9,36,60,23,57,62,29
2016/5/10,1462809600,2016,5,10,43,36,60,23,57,62
2016/5/11,1462896000,2016,5,11,150,43,36,60,23,57
2016/5/12,1462982400,2016,5,12,34,150,43,36,60,23
2016/5/13,1463068800,2016,5,13,32,34,150,43,36,60
2016/5/14,1463155200,2016,5,14,41,32,34,150,43,36
2016/5/15,1463241600,2016,5,15,34,41,32,34,150,43
2016/5/16,1463328000,2016,5,16,24,34,41,32,34,150
2016/5/17,1463414400,2016,5,17,58,24,34,41,32,34
2016/5/18,1463500800,2016,5,18,61,58,24,34,41,32
2016/5/19,1463587200,2016,5,19,86,61,58,24,34,41
2016/5/20,1463673600,2016,5,20,88,86,61,58,24,34
2016/5/21,1463760000,2016,5,21,68,88,86,61,58,24
2016/5/22,1463846400,2016,5,22,49,68,88,86,61,58
2016/5/23,1463932800,2016,5,23,61,49,68,88,86,61
2016/5/24,1464019200,2016,5,24,19,61,49,68,88,86
2016/5/25,1464105600,2016,5,25,13,19,61,49,68,88
2016/5/26,1464192000,2016,5,26,22,13,19,61,49,68
2016/5/27,1464278400,2016,5,27,48,22,13,19,61,49
2016/5/28,1464364800,2016,5,28,48,48,22,13,19,61
2016/5/29,1464451200,2016,5,29,33,48,48,22,13,19
2016/5/30,1464537600,2016,5,30,82,33,48,48,22,13
2016/5/31,1464624000,2016,5,31,45,82,33,48,48,22
2016/6/1,1464710400,2016,6,1,37,45,82,33,48,48
2016/6/2,1464796800,2016,6,2,53,37,45,82,33,48
2016/6/3,1464883200,2016,6,3,82,53,37,45,82,33
2016/6/4,1464969600,2016,6,4,87,82,53,37,45,82
2016/6/5,1465056000,2016,6,5,71,87,82,53,37,45
2016/6/6,1465142400,2016,6,6,87,71,87,82,53,37
2016/6/7,1465228800,2016,6,7,60,87,71,87,82,53
2016/6/8,1465315200,2016,6,8,129,60,87,71,87,82
2016/6/9,1465401600,2016,6,9,106,129,60,87,71,87
2016/6/10,1465488000,2016,6,10,52,106,129,60,87,71
2016/6/11,1465574400,2016,6,11,12,52,106,129,60,87
2016/6/12,1465660800,2016,6,12,71,12,52,106,129,60
2016/6/13,1465747200,2016,6,13,47,71,12,52,106,129
2016/6/14,1465833600,2016,6,14,35,47,71,12,52,106
2016/6/15,1465920000,2016,6,15,19,35,47,71,12,52
2016/6/16,1466006400,2016,6,16,26,19,35,47,71,12
2016/6/17,1466092800,2016,6,17,24,26,19,35,47,71
2016/6/18,1466179200,2016,6,18,42,24,26,19,35,47
2016/6/19,1466265600,2016,6,19,65,42,24,26,19,35
2016/6/20,1466352000,2016,6,20,85,65,42,24,26,19
2016/6/21,1466438400,2016,6,21,85,85,65,42,24,26
2016/6/22,1466524800,2016,6,22,56,85,85,65,42,24
2016/6/23,1466611200,2016,6,23,76,56,85,85,65,42
2016/6/24,1466697600,2016,6,24,13,76,56,85,85,65
2016/6/25,1466784000,2016,6,25,18,13,76,56,85,85
2016/6/26,1466870400,2016,6,26,41,18,13,76,56,85
2016/6/27,1466956800,2016,6,27,60,41,18,13,76,56
2016/6/28,1467043200,2016,6,28,73,60,41,18,13,76
2016/6/29,1467129600,2016,6,29,111,73,60,41,18,13
2016/6/30,1467216000,2016,6,30,60,111,73,60,41,18
2016/7/1,1467302400,2016,7,1,14,60,111,73,60,41
2016/7/2,1467388800,2016,7,2,47,14,60,111,73,60
2016/7/3,1467475200,2016,7,3,83,47,14,60,111,73
2016/7/4,1467561600,2016,7,4,131,83,47,14,60,111
2016/7/5,1467648000,2016,7,5,96,131,83,47,14,60
2016/7/6,1467734400,2016,7,6,74,96,131,83,47,14
2016/7/7,1467820800,2016,7,7,110,74,96,131,83,47
2016/7/8,1467907200,2016,7,8,91,110,74,96,131,83
2016/7/9,1467993600,2016,7,9,83,91,110,74,96,131
2016/7/10,1468080000,2016,7,10,91,83,91,110,74,96
2016/7/11,1468166400,2016,7,11,86,91,83,91,110,74
2016/7/12,1468252800,2016,7,12,29,86,91,83,91,110
2016/7/13,1468339200,2016,7,13,20,29,86,91,83,91
2016/7/14,1468425600,2016,7,14,35,20,29,86,91,83
2016/7/15,1468512000,2016,7,15,36,35,20,29,86,91
2016/7/16,1468598400,2016,7,16,38,36,35,20,29,86
2016/7/17,1468684800,2016,7,17,79,38,36,35,20,29
2016/7/18,1468771200,2016,7,18,106,79,38,36,35,20
2016/7/19,1468857600,2016,7,19,101,106,79,38,36,35
2016/7/20,1468944000,2016,7,20,33,101,106,79,38,36
2016/7/21,1469030400,2016,7,21,28,33,101,106,79,38
2016/7/22,1469116800,2016,7,22,75,28,33,101,106,79
2016/7/23,1469203200,2016,7,23,120,75,28,33,101,106
2016/7/24,1469289600,2016,7,24,73,120,75,28,33,101
2016/7/25,1469376000,2016,7,25,40,73,120,75,28,33
2016/7/26,1469462400,2016,7,26,21,40,73,120,75,28
2016/7/27,1469548800,2016,7,27,47,21,40,73,120,75
2016/7/28,1469635200,2016,7,28,50,47,21,40,73,120
2016/7/29,1469721600,2016,7,29,120,50,47,21,40,73
2016/7/30,1469808000,2016,7,30,129,120,50,47,21,40
2016/7/31,1469894400,2016,7,31,56,129,120,50,47,21
2016/8/1,1469980800,2016,8,1,71,56,129,120,50,47
2016/8/2,1470067200,2016,8,2,49,71,56,129,120,50
2016/8/3,1470153600,2016,8,3,59,49,71,56,129,120
2016/8/4,1470240000,2016,8,4,101,59,49,71,56,129
2016/8/5,1470326400,2016,8,5,66,101,59,49,71,56
2016/8/6,1470412800,2016,8,6,98,66,101,59,49,71
2016/8/7,1470499200,2016,8,7,20,98,66,101,59,49
2016/8/8,1470585600,2016,8,8,32,20,98,66,101,59
2016/8/9,1470672000,2016,8,9,46,32,20,98,66,101
2016/8/10,1470758400,2016,8,10,84,46,32,20,98,66
2016/8/11,1470844800,2016,8,11,86,84,46,32,20,98
2016/8/12,1470931200,2016,8,12,58,86,84,46,32,20
2016/8/13,1471017600,2016,8,13,22,58,86,84,46,32
2016/8/14,1471104000,2016,8,14,22,22,58,86,84,46
2016/8/15,1471190400,2016,8,15,20,22,22,58,86,84
2016/8/16,1471276800,2016,8,16,24,20,22,22,58,86
2016/8/17,1471363200,2016,8,17,64,24,20,22,22,58
2016/8/18,1471449600,2016,8,18,74,64,24,20,22,22
2016/8/19,1471536000,2016,8,19,19,74,64,24,20,22
2016/8/20,1471622400,2016,8,20,54,19,74,64,24,20
2016/8/21,1471708800,2016,8,21,54,54,19,74,64,24
2016/8/22,1471795200,2016,8,22,50,54,54,19,74,64
2016/8/23,1471881600,2016,8,23,71,50,54,54,19,74
2016/8/24,1471968000,2016,8,24,82,71,50,54,54,19
2016/8/25,1472054400,2016,8,25,17,82,71,50,54,54
2016/8/26,1472140800,2016,8,26,11,17,82,71,50,54
2016/8/27,1472227200,2016,8,27,15,11,17,82,71,50
2016/8/28,1472313600,2016,8,28,12,15,11,17,82,71
2016/8/29,1472400000,2016,8,29,19,12,15,11,17,82
2016/8/30,1472486400,2016,8,30,30,19,12,15,11,17
2016/8/31,1472572800,2016,8,31,16,30,19,12,15,11
2016/9/1,1472659200,2016,9,1,8,16,30,19,12,15
2016/9/2,1472745600,2016,9,2,12,8,16,30,19,12
2016/9/3,1472832000,2016,9,3,21,12,8,16,30,19
2016/9/4,1472918400,2016,9,4,79,21,12,8,16,30
2016/9/5,1473004800,2016,9,5,28,79,21,12,8,16
2016/9/6,1473091200,2016,9,6,0,28,79,21,12,8
2016/9/7,1473177600,2016,9,7,40,0,28,79,21,12
2016/9/8,1473264000,2016,9,8,23,40,0,28,79,21
2016/9/9,1473350400,2016,9,9,18,23,40,0,28,79
2016/9/10,1473436800,2016,9,10,17,18,23,40,0,28
2016/9/11,1473523200,2016,9,11,32,17,18,23,40,0
2016/9/12,1473609600,2016,9,12,34,32,17,18,23,40
2016/9/13,1473696000,2016,9,13,89,34,32,17,18,23
2016/9/14,1473782400,2016,9,14,99,89,34,32,17,18
2016/9/15,1473868800,2016,9,15,79,99,89,34,32,17
2016/9/16,1473955200,2016,9,16,130,79,99,89,34,32
2016/9/17,1474041600,2016,9,17,40,130,79,99,89,34
2016/9/18,1474128000,2016,9,18,23,40,130,79,99,89
2016/9/19,1474214400,2016,9,19,12,23,40,130,79,99
2016/9/20,1474300800,2016,9,20,21,12,23,40,130,79
2016/9/21,1474387200,2016,9,21,68,21,12,23,40,130
2016/9/22,1474473600,2016,9,22,104,68,21,12,23,40
2016/9/23,1474560000,2016,9,23,127,104,68,21,12,23
2016/9/24,1474646400,2016,9,24,119,127,104,68,21,12
2016/9/25,1474732800,2016,9,25,161,119,127,104,68,21
2016/9/26,1474819200,2016,9,26,59,161,119,127,104,68
2016/9/27,1474905600,2016,9,27,23,59,161,119,127,104
2016/9/28,1474992000,2016,9,28,16,23,59,161,119,127
2016/9/29,1475078400,2016,9,29,53,16,23,59,161,119
2016/9/30,1475164800,2016,9,30,103,53,16,23,59,161
2016/10/1,1475251200,2016,10,1,170,103,53,16,23,59
2016/10/2,1475337600,2016,10,2,183,170,103,53,16,23
2016/10/3,1475424000,2016,10,3,121,183,170,103,53,16
2016/10/4,1475510400,2016,10,4,31,121,183,170,103,53
2016/10/5,1475596800,2016,10,5,61,31,121,183,170,103
2016/10/6,1475683200,2016,10,6,71,61,31,121,183,170
2016/10/7,1475769600,2016,10,7,39,71,61,31,121,183
2016/10/8,1475856000,2016,10,8,13,39,71,61,31,121
2016/10/9,1475942400,2016,10,9,33,13,39,71,61,31
2016/10/10,1476028800,2016,10,10,92,33,13,39,71,61
2016/10/11,1476115200,2016,10,11,114,92,33,13,39,71
2016/10/12,1476201600,2016,10,12,80,114,92,33,13,39
2016/10/13,1476288000,2016,10,13,156,80,114,92,33,13
2016/10/14,1476374400,2016,10,14,242,156,80,114,92,33
2016/10/15,1476460800,2016,10,15,186,242,156,80,114,92
2016/10/16,1476547200,2016,10,16,117,186,242,156,80,114
2016/10/17,1476633600,2016,10,17,63,117,186,242,156,80
2016/10/18,1476720000,2016,10,18,122,63,117,186,242,156
2016/10/19,1476806400,2016,10,19,228,122,63,117,186,242
2016/10/20,1476892800,2016,10,20,87,228,122,63,117,186
2016/10/21,1476979200,2016,10,21,43,87,228,122,63,117
2016/10/22,1477065600,2016,10,22,15,43,87,228,122,63
2016/10/23,1477152000,2016,10,23,28,15,43,87,228,122
2016/10/24,1477238400,2016,10,24,64,28,15,43,87,228
2016/10/25,1477324800,2016,10,25,101,64,28,15,43,87
2016/10/26,1477411200,2016,10,26,42,101,64,28,15,43
2016/10/27,1477497600,2016,10,27,30,42,101,64,28,15
2016/10/28,1477584000,2016,10,28,11,30,42,101,64,28
2016/10/29,1477670400,2016,10,29,26,11,30,42,101,64
2016/10/30,1477756800,2016,10,30,44,26,11,30,42,101
2016/10/31,1477843200,2016,10,31,9,44,26,11,30,42
2016/11/1,1477929600,2016,11,1,45,9,44,26,11,30
2016/11/2,1478016000,2016,11,2,107,45,9,44,26,11
2016/11/3,1478102400,2016,11,3,193,107,45,9,44,26
2016/11/4,1478188800,2016,11,4,242,193,107,45,9,44
2016/11/5,1478275200,2016,11,5,180,242,193,107,45,9
2016/11/6,1478361600,2016,11,6,71,180,242,193,107,45
2016/11/7,1478448000,2016,11,7,37,71,180,242,193,107
2016/11/8,1478534400,2016,11,8,39,37,71,180,242,193
2016/11/9,1478620800,2016,11,9,158,39,37,71,180,242
2016/11/10,1478707200,2016,11,10,149,158,39,37,71,180
2016/11/11,1478793600,2016,11,11,83,149,158,39,37,71
2016/11/12,1478880000,2016,11,12,75,83,149,158,39,37
2016/11/13,1478966400,2016,11,13,100,75,83,149,158,39
2016/11/14,1479052800,2016,11,14,39,100,75,83,149,158
2016/11/15,1479139200,2016,11,15,45,39,100,75,83,149
2016/11/16,1479225600,2016,11,16,100,45,39,100,75,83
2016/11/17,1479312000,2016,11,17,114,100,45,39,100,75
2016/11/18,1479398400,2016,11,18,192,114,100,45,39,100
2016/11/19,1479484800,2016,11,19,125,192,114,100,45,39
2016/11/20,1479571200,2016,11,20,51,125,192,114,100,45
2016/11/21,1479657600,2016,11,21,10,51,125,192,114,100
2016/11/22,1479744000,2016,11,22,8,10,51,125,192,114
2016/11/23,1479830400,2016,11,23,19,8,10,51,125,192
2016/11/24,1479916800,2016,11,24,76,19,8,10,51,125
2016/11/25,1480003200,2016,11,25,164,76,19,8,10,51
2016/11/26,1480089600,2016,11,26,265,164,76,19,8,10
2016/11/27,1480176000,2016,11,27,49,265,164,76,19,8
2016/11/28,1480262400,2016,11,28,63,49,265,164,76,19
2016/11/29,1480348800,2016,11,29,98,63,49,265,164,76
2016/11/30,1480435200,2016,11,30,88,98,63,49,265,164
2016/12/1,1480521600,2016,12,1,33,88,98,63,49,265
2016/12/2,1480608000,2016,12,2,98,33,88,98,63,49
2016/12/3,1480694400,2016,12,3,209,98,33,88,98,63
2016/12/4,1480780800,2016,12,4,252,209,98,33,88,98
2016/12/5,1480867200,2016,12,5,43,252,209,98,33,88
2016/12/6,1480953600,2016,12,6,84,43,252,209,98,33
2016/12/7,1481040000,2016,12,7,129,84,43,252,209,98
2016/12/8,1481126400,2016,12,8,86,129,84,43,252,209
2016/12/9,1481212800,2016,12,9,25,86,129,84,43,252
2016/12/10,1481299200,2016,12,10,49,25,86,129,84,43
2016/12/11,1481385600,2016,12,11,169,49,25,86,129,84
2016/12/12,1481472000,2016,12,12,221,169,49,25,86,129
2016/12/13,1481558400,2016,12,13,49,221,169,49,25,86
2016/12/14,1481644800,2016,12,14,28,49,221,169,49,25
2016/12/15,1481731200,2016,12,15,27,28,49,221,169,49
2016/12/16,1481817600,2016,12,16,114,27,28,49,221,169
2016/12/17,1481904000,2016,12,17,196,114,27,28,49,221
2016/12/18,1481990400,2016,12,18,221,196,114,27,28,49
2016/12/19,1482076800,2016,12,19,223,221,196,114,27,28
2016/12/20,1482163200,2016,12,20,376,223,221,196,114,27
2016/12/21,1482249600,2016,12,21,396,376,223,221,196,114
2016/12/22,1482336000,2016,12,22,58,396,376,223,221,196
2016/12/23,1482422400,2016,12,23,34,58,396,376,223,221
2016/12/24,1482508800,2016,12,24,122,34,58,396,376,223
2016/12/25,1482595200,2016,12,25,146,122,34,58,396,376
2016/12/26,1482681600,2016,12,26,41,146,122,34,58,396
2016/12/27,1482768000,2016,12,27,42,41,146,122,34,58
2016/12/28,1482854400,2016,12,28,64,42,41,146,122,34
2016/12/29,1482940800,2016,12,29,65,64,42,41,146,122
2016/12/30,1483027200,2016,12,30,212,65,64,42,41,146
2016/12/31,1483113600,2016,12,31,301,212,65,64,42,41
2017/1/1,1483200000,2017,1,1,454,301,212,65,64,42
2017/1/2,1483286400,2017,1,2,198,454,301,212,65,64
2017/1/3,1483372800,2017,1,3,298,198,454,301,212,65
2017/1/4,1483459200,2017,1,4,339,298,198,454,301,212
2017/1/5,1483545600,2017,1,5,220,339,298,198,454,301
2017/1/6,1483632000,2017,1,6,198,220,339,298,198,454
2017/1/7,1483718400,2017,1,7,170,198,220,339,298,198
2017/1/8,1483804800,2017,1,8,35,170,198,220,339,298
2017/1/9,1483891200,2017,1,9,35,35,170,198,220,339
2017/1/10,1483977600,2017,1,10,23,35,35,170,198,220
2017/1/11,1484064000,2017,1,11,59,23,35,35,170,198
2017/1/12,1484150400,2017,1,12,42,59,23,35,35,170
2017/1/13,1484236800,2017,1,13,8,42,59,23,35,35
2017/1/14,1484323200,2017,1,14,19,8,42,59,23,35
2017/1/15,1484409600,2017,1,15,52,19,8,42,59,23
2017/1/16,1484496000,2017,1,16,92,52,19,8,42,59
2017/1/17,1484582400,2017,1,17,136,92,52,19,8,42
2017/1/18,1484668800,2017,1,18,36,136,92,52,19,8
2017/1/19,1484755200,2017,1,19,46,36,136,92,52,19
2017/1/20,1484841600,2017,1,20,23,46,36,136,92,52
2017/1/21,1484928000,2017,1,21,25,23,46,36,136,92
2017/1/22,1485014400,2017,1,22,25,25,23,46,36,136
2017/1/23,1485100800,2017,1,23,33,25,25,23,46,36
2017/1/24,1485187200,2017,1,24,87,33,25,25,23,46
2017/1/25,1485273600,2017,1,25,174,87,33,25,25,23
2017/1/26,1485360000,2017,1,26,159,174,87,33,25,25
2017/1/27,1485446400,2017,1,27,65,159,174,87,33,25
2017/1/28,1485532800,2017,1,28,348,65,159,174,87,33
2017/1/29,1485619200,2017,1,29,31,348,65,159,174,87
2017/1/30,1485705600,2017,1,30,27,31,348,65,159,174
2017/1/31,1485792000,2017,1,31,79,27,31,348,65,159
2017/2/1,1485878400,2017,2,1,33,79,27,31,348,65
2017/2/2,1485964800,2017,2,2,78,33,79,27,31,348
2017/2/3,1486051200,2017,2,3,160,78,33,79,27,31
2017/2/4,1486137600,2017,2,4,255,160,78,33,79,27
2017/2/5,1486224000,2017,2,5,12,255,160,78,33,79
2017/2/6,1486310400,2017,2,6,13,12,255,160,78,33
2017/2/7,1486396800,2017,2,7,78,13,12,255,160,78
2017/2/8,1486483200,2017,2,8,30,78,13,12,255,160
2017/2/9,1486569600,2017,2,9,7,30,78,13,12,255
2017/2/10,1486656000,2017,2,10,7,7,30,78,13,12
2017/2/11,1486742400,2017,2,11,47,7,7,30,78,13
2017/2/12,1486828800,2017,2,12,105,47,7,7,30,78
2017/2/13,1486915200,2017,2,13,82,105,47,7,7,30
2017/2/14,1487001600,2017,2,14,180,82,105,47,7,7
2017/2/15,1487088000,2017,2,15,231,180,82,105,47,7
2017/2/16,1487174400,2017,2,16,104,231,180,82,105,47
2017/2/17,1487260800,2017,2,17,22,104,231,180,82,105
2017/2/18,1487347200,2017,2,18,86,22,104,231,180,82
2017/2/19,1487433600,2017,2,19,98,86,22,104,231,180
2017/2/20,1487520000,2017,2,20,11,98,86,22,104,231
2017/2/21,1487606400,2017,2,21,61,11,98,86,22,104
2017/2/22,1487692800,2017,2,22,78,61,11,98,86,22
2017/2/23,1487779200,2017,2,23,18,78,61,11,98,86
2017/2/24,1487865600,2017,2,24,26,18,78,61,11,98
2017/2/25,1487952000,2017,2,25,11,26,18,78,61,11
2017/2/26,1488038400,2017,2,26,28,11,26,18,78,61
2017/2/27,1488124800,2017,2,27,66,28,11,26,18,78
2017/2/28,1488211200,2017,2,28,14,66,28,11,26,18
2017/3/1,1488297600,2017,3,1,8,14,66,28,11,26
2017/3/2,1488384000,2017,3,2,39,8,14,66,28,11
2017/3/3,1488470400,2017,3,3,84,39,8,14,66,28
2017/3/4,1488556800,2017,3,4,86,84,39,8,14,66
2017/3/5,1488643200,2017,3,5,12,86,84,39,8,14
2017/3/6,1488729600,2017,3,6,17,12,86,84,39,8
2017/3/7,1488816000,2017,3,7,7,17,12,86,84,39
2017/3/8,1488902400,2017,3,8,10,7,17,12,86,84
2017/3/9,1488988800,2017,3,9,13,10,7,17,12,86
2017/3/10,1489075200,2017,3,10,31,13,10,7,17,12
2017/3/11,1489161600,2017,3,11,46,31,13,10,7,17
2017/3/12,1489248000,2017,3,12,7,46,31,13,10,7
2017/3/13,1489334400,2017,3,13,11,7,46,31,13,10
2017/3/14,1489420800,2017,3,14,19,11,7,46,31,13
2017/3/15,1489507200,2017,3,15,64,19,11,7,46,31
2017/3/16,1489593600,2017,3,16,114,64,19,11,7,46
2017/3/17,1489680000,2017,3,17,122,114,64,19,11,7
2017/3/18,1489766400,2017,3,18,143,122,114,64,19,11
2017/3/19,1489852800,2017,3,19,223,143,122,114,64,19
2017/3/20,1489939200,2017,3,20,138,223,143,122,114,64
2017/3/21,1490025600,2017,3,21,86,138,223,143,122,114
2017/3/22,1490112000,2017,3,22,133,86,138,223,143,122
2017/3/23,1490198400,2017,3,23,122,133,86,138,223,143
2017/3/24,1490284800,2017,3,24,59,122,133,86,138,223
2017/3/25,1490371200,2017,3,25,34,59,122,133,86,138
2017/3/26,1490457600,2017,3,26,12,34,59,122,133,86
2017/3/27,1490544000,2017,3,27,16,12,34,59,122,133
2017/3/28,1490630400,2017,3,28,59,16,12,34,59,122
2017/3/29,1490716800,2017,3,29,114,59,16,12,34,59
2017/3/30,1490803200,2017,3,30,87,114,59,16,12,34
2017/3/31,1490889600,2017,3,31,19,87,114,59,16,12
2017/4/1,1490976000,2017,4,1,29,19,87,114,59,16
2017/4/2,1491062400,2017,4,2,67,29,19,87,114,59
2017/4/3,1491148800,2017,4,3,126,67,29,19,87,114
2017/4/4,1491235200,2017,4,4,132,126,67,29,19,87
2017/4/5,1491321600,2017,4,5,60,132,126,67,29,19
2017/4/6,1491408000,2017,4,6,96,60,132,126,67,29
2017/4/7,1491494400,2017,4,7,75,96,60,132,126,67
2017/4/8,1491580800,2017,4,8,57,75,96,60,132,126
2017/4/9,1491667200,2017,4,9,65,57,75,96,60,132
2017/4/10,1491753600,2017,4,10,67,65,57,75,96,60
2017/4/11,1491840000,2017,4,11,26,67,65,57,75,96
2017/4/12,1491926400,2017,4,12,28,26,67,65,57,75
2017/4/13,1492012800,2017,4,13,53,28,26,67,65,57
2017/4/14,1492099200,2017,4,14,61,53,28,26,67,65
2017/4/15,1492185600,2017,4,15,36,61,53,28,26,67
2017/4/16,1492272000,2017,4,16,95,36,61,53,28,26
2017/4/17,1492358400,2017,4,17,128,95,36,61,53,28
2017/4/18,1492444800,2017,4,18,24,128,95,36,61,53
2017/4/19,1492531200,2017,4,19,43,24,128,95,36,61
2017/4/20,1492617600,2017,4,20,39,43,24,128,95,36
2017/4/21,1492704000,2017,4,21,18,39,43,24,128,95
2017/4/22,1492790400,2017,4,22,44,18,39,43,24,128
2017/4/23,1492876800,2017,4,23,23,44,18,39,43,24
2017/4/24,1492963200,2017,4,24,34,23,44,18,39,43
2017/4/25,1493049600,2017,4,25,13,34,23,44,18,39
2017/4/26,1493136000,2017,4,26,14,13,34,23,44,18
2017/4/27,1493222400,2017,4,27,15,14,13,34,23,44
2017/4/28,1493308800,2017,4,28,23,15,14,13,34,23
2017/4/29,1493395200,2017,4,29,40,23,15,14,13,34
2017/4/30,1493481600,2017,4,30,50,40,23,15,14,13
2017/5/1,1493568000,2017,5,1,40,50,40,23,15,14
2017/5/2,1493654400,2017,5,2,59,40,50,40,23,15
2017/5/3,1493740800,2017,5,3,70,59,40,50,40,23
2017/5/4,1493827200,2017,5,4,353,70,59,40,50,40
2017/5/5,1493913600,2017,5,5,178,353,70,59,40,50
2017/5/6,1494000000,2017,5,6,32,178,353,70,59,40
2017/5/7,1494086400,2017,5,7,27,32,178,353,70,59
2017/5/8,1494172800,2017,5,8,55,27,32,178,353,70
2017/5/9,1494259200,2017,5,9,44,55,27,32,178,353
2017/5/10,1494345600,2017,5,10,39,44,55,27,32,178
2017/5/11,1494432000,2017,5,11,29,39,44,55,27,32
2017/5/12,1494518400,2017,5,12,46,29,39,44,55,27
2017/5/13,1494604800,2017,5,13,19,46,29,39,44,55
2017/5/14,1494691200,2017,5,14,13,19,46,29,39,44
2017/5/15,1494777600,2017,5,15,22,13,19,46,29,39
2017/5/16,1494864000,2017,5,16,43,22,13,19,46,29
2017/5/17,1494950400,2017,5,17,62,43,22,13,19,46
2017/5/18,1495036800,2017,5,18,81,62,43,22,13,19
2017/5/19,1495123200,2017,5,19,84,81,62,43,22,13
2017/5/20,1495209600,2017,5,20,57,84,81,62,43,22
2017/5/21,1495296000,2017,5,21,57,57,84,81,62,43
2017/5/22,1495382400,2017,5,22,37,57,57,84,81,62
2017/5/23,1495468800,2017,5,23,18,37,57,57,84,81
2017/5/24,1495555200,2017,5,24,17,18,37,57,57,84
2017/5/25,1495641600,2017,5,25,21,17,18,37,57,57
2017/5/26,1495728000,2017,5,26,44,21,17,18,37,57
2017/5/27,1495814400,2017,5,27,67,44,21,17,18,37
2017/5/28,1495900800,2017,5,28,89,67,44,21,17,18
2017/5/29,1495987200,2017,5,29,28,89,67,44,21,17
2017/5/30,1496073600,2017,5,30,41,28,89,67,44,21
2017/5/31,1496160000,2017,5,31,67,41,28,89,67,44
2017/6/1,1496246400,2017,6,1,23,67,41,28,89,67
2017/6/2,1496332800,2017,6,2,23,23,67,41,28,89
2017/6/3,1496419200,2017,6,3,29,23,23,67,41,28
2017/6/4,1496505600,2017,6,4,48,29,23,23,67,41
2017/6/5,1496592000,2017,6,5,66,48,29,23,23,67
2017/6/6,1496678400,2017,6,6,36,66,48,29,23,23
2017/6/7,1496764800,2017,6,7,47,36,66,48,29,23
2017/6/8,1496851200,2017,6,8,24,47,36,66,48,29
2017/6/9,1496937600,2017,6,9,30,24,47,36,66,48
2017/6/10,1497024000,2017,6,10,21,30,24,47,36,66
2017/6/11,1497110400,2017,6,11,33,21,30,24,47,36
2017/6/12,1497196800,2017,6,12,34,33,21,30,24,47
2017/6/13,1497283200,2017,6,13,40,34,33,21,30,24
2017/6/14,1497369600,2017,6,14,37,40,34,33,21,30
2017/6/15,1497456000,2017,6,15,39,37,40,34,33,21
2017/6/16,1497542400,2017,6,16,59,39,37,40,34,33
2017/6/17,1497628800,2017,6,17,80,59,39,37,40,34
2017/6/18,1497715200,2017,6,18,71,80,59,39,37,40
2017/6/19,1497801600,2017,6,19,36,71,80,59,39,37
2017/6/20,1497888000,2017,6,20,30,36,71,80,59,39
2017/6/21,1497974400,2017,6,21,49,30,36,71,80,59
2017/6/22,1498060800,2017,6,22,32,49,30,36,71,80
2017/6/23,1498147200,2017,6,23,18,32,49,30,36,71
2017/6/24,1498233600,2017,6,24,21,18,32,49,30,36
2017/6/25,1498320000,2017,6,25,26,21,18,32,49,30
2017/6/26,1498406400,2017,6,26,23,26,21,18,32,49
2017/6/27,1498492800,2017,6,27,72,23,26,21,18,32
2017/6/28,1498579200,2017,6,28,95,72,23,26,21,18
2017/6/29,1498665600,2017,6,29,57,95,72,23,26,21
2017/6/30,1498752000,2017,6,30,71,57,95,72,23,26
2017/7/1,1498838400,2017,7,1,88,71,57,95,72,23
2017/7/2,1498924800,2017,7,2,90,88,71,57,95,72
2017/7/3,1499011200,2017,7,3,61,90,88,71,57,95
2017/7/4,1499097600,2017,7,4,47,61,90,88,71,57
2017/7/5,1499184000,2017,7,5,82,47,61,90,88,71
2017/7/6,1499270400,2017,7,6,72,82,47,61,90,88
2017/7/7,1499356800,2017,7,7,32,72,82,47,61,90
2017/7/8,1499443200,2017,7,8,39,32,72,82,47,61
2017/7/9,1499529600,2017,7,9,75,39,32,72,82,47
2017/7/10,1499616000,2017,7,10,24,75,39,32,72,82
2017/7/11,1499702400,2017,7,11,46,24,75,39,32,72
2017/7/12,1499788800,2017,7,12,73,46,24,75,39,32
2017/7/13,1499875200,2017,7,13,64,73,46,24,75,39
2017/7/14,1499961600,2017,7,14,34,64,73,46,24,75
2017/7/15,1500048000,2017,7,15,35,34,64,73,46,24
2017/7/16,1500134400,2017,7,16,68,35,34,64,73,46
2017/7/17,1500220800,2017,7,17,53,68,35,34,64,73
2017/7/18,1500307200,2017,7,18,61,53,68,35,34,64
2017/7/19,1500393600,2017,7,19,74,61,53,68,35,34
2017/7/20,1500480000,2017,7,20,97,74,61,53,68,35
2017/7/21,1500566400,2017,7,21,22,97,74,61,53,68
2017/7/22,1500652800,2017,7,22,23,22,97,74,61,53
2017/7/23,1500739200,2017,7,23,43,23,22,97,74,61
2017/7/24,1500825600,2017,7,24,41,43,23,22,97,74
2017/7/25,1500912000,2017,7,25,33,41,43,23,22,97
2017/7/26,1500998400,2017,7,26,22,33,41,43,23,22
2017/7/27,1501084800,2017,7,27,40,22,33,41,43,23
2017/7/28,1501171200,2017,7,28,28,40,22,33,41,43
2017/7/29,1501257600,2017,7,29,32,28,40,22,33,41
2017/7/30,1501344000,2017,7,30,38,32,28,40,22,33
2017/7/31,1501430400,2017,7,31,79,38,32,28,40,22
2017/8/1,1501516800,2017,8,1,67,79,38,32,28,40
2017/8/2,1501603200,2017,8,2,34,67,79,38,32,28
2017/8/3,1501689600,2017,8,3,21,34,67,79,38,32
2017/8/4,1501776000,2017,8,4,22,21,34,67,79,38
2017/8/5,1501862400,2017,8,5,28,22,21,34,67,79
2017/8/6,1501948800,2017,8,6,17,28,22,21,34,67
2017/8/7,1502035200,2017,8,7,10,17,28,22,21,34
2017/8/8,1502121600,2017,8,8,30,10,17,28,22,21
2017/8/9,1502208000,2017,8,9,22,30,10,17,28,22
2017/8/10,1502294400,2017,8,10,64,22,30,10,17,28
2017/8/11,1502380800,2017,8,11,91,64,22,30,10,17
2017/8/12,1502467200,2017,8,12,31,91,64,22,30,10
2017/8/13,1502553600,2017,8,13,41,31,91,64,22,30
2017/8/14,1502640000,2017,8,14,28,41,31,91,64,22
2017/8/15,1502726400,2017,8,15,54,28,41,31,91,64
2017/8/16,1502812800,2017,8,16,56,54,28,41,31,91
2017/8/17,1502899200,2017,8,17,22,56,54,28,41,31
2017/8/18,1502985600,2017,8,18,53,22,56,54,28,41
2017/8/19,1503072000,2017,8,19,41,53,22,56,54,28
2017/8/20,1503158400,2017,8,20,60,41,53,22,56,54
2017/8/21,1503244800,2017,8,21,71,60,41,53,22,56
2017/8/22,1503331200,2017,8,22,74,71,60,41,53,22
2017/8/23,1503417600,2017,8,23,20,74,71,60,41,53
2017/8/24,1503504000,2017,8,24,14,20,74,71,60,41
2017/8/25,1503590400,2017,8,25,9,14,20,74,71,60
2017/8/26,1503676800,2017,8,26,15,9,14,20,74,71
2017/8/27,1503763200,2017,8,27,17,15,9,14,20,74
2017/8/28,1503849600,2017,8,28,19,17,15,9,14,20
2017/8/29,1503936000,2017,8,29,16,19,17,15,9,14
2017/8/30,1504022400,2017,8,30,52,16,19,17,15,9
2017/8/31,1504108800,2017,8,31,81,52,16,19,17,15
2017/9/1,1504195200,2017,9,1,138,81,52,16,19,17
2017/9/2,1504281600,2017,9,2,106,138,81,52,16,19
2017/9/3,1504368000,2017,9,3,57,106,138,81,52,16
2017/9/4,1504454400,2017,9,4,88,57,106,138,81,52
2017/9/5,1504540800,2017,9,5,40,88,57,106,138,81
2017/9/6,1504627200,2017,9,6,15,40,88,57,106,138
2017/9/7,1504713600,2017,9,7,45,15,40,88,57,106
2017/9/8,1504800000,2017,9,8,115,45,15,40,88,57
2017/9/9,1504886400,2017,9,9,101,115,45,15,40,88
2017/9/10,1504972800,2017,9,10,93,101,115,45,15,40
2017/9/11,1505059200,2017,9,11,19,93,101,115,45,15
2017/9/12,1505145600,2017,9,12,21,19,93,101,115,45
2017/9/13,1505232000,2017,9,13,72,21,19,93,101,115
2017/9/14,1505318400,2017,9,14,85,72,21,19,93,101
2017/9/15,1505404800,2017,9,15,59,85,72,21,19,93
2017/9/16,1505491200,2017,9,16,93,59,85,72,21,19
2017/9/17,1505577600,2017,9,17,10,93,59,85,72,21
2017/9/18,1505664000,2017,9,18,23,10,93,59,85,72
2017/9/19,1505750400,2017,9,19,13,23,10,93,59,85
2017/9/20,1505836800,2017,9,20,13,13,23,10,93,59
2017/9/21,1505923200,2017,9,21,58,13,13,23,10,93
2017/9/22,1506009600,2017,9,22,23,58,13,13,23,10
2017/9/23,1506096000,2017,9,23,49,23,58,13,13,23
2017/9/24,1506182400,2017,9,24,62,49,23,58,13,13
2017/9/25,1506268800,2017,9,25,75,62,49,23,58,13
2017/9/26,1506355200,2017,9,26,48,75,62,49,23,58
2017/9/27,1506441600,2017,9,27,28,48,75,62,49,23
2017/9/28,1506528000,2017,9,28,9,28,48,75,62,49
2017/9/29,1506614400,2017,9,29,43,9,28,48,75,62
2017/9/30,1506700800,2017,9,30,109,43,9,28,48,75
2017/10/1,1506787200,2017,10,1,71,109,43,9,28,48
2017/10/2,1506873600,2017,10,2,13,71,109,43,9,28
2017/10/3,1506960000,2017,10,3,16,13,71,109,43,9
2017/10/4,1507046400,2017,10,4,29,16,13,71,109,43
2017/10/5,1507132800,2017,10,5,55,29,16,13,71,109
2017/10/6,1507219200,2017,10,6,67,55,29,16,13,71
2017/10/7,1507305600,2017,10,7,112,67,55,29,16,13
2017/10/8,1507392000,2017,10,8,125,112,67,55,29,16
2017/10/9,1507478400,2017,10,9,29,125,112,67,55,29
2017/10/10,1507564800,2017,10,10,5,29,125,112,67,55
2017/10/11,1507651200,2017,10,11,11,5,29,125,112,67
2017/10/12,1507737600,2017,10,12,21,11,5,29,125,112
2017/10/13,1507824000,2017,10,13,38,21,11,5,29,125
2017/10/14,1507910400,2017,10,14,15,38,21,11,5,29
2017/10/15,1507996800,2017,10,15,49,15,38,21,11,5
2017/10/16,1508083200,2017,10,16,39,49,15,38,21,11
2017/10/17,1508169600,2017,10,17,69,39,49,15,38,21
2017/10/18,1508256000,2017,10,18,67,69,39,49,15,38
2017/10/19,1508342400,2017,10,19,55,67,69,39,49,15
2017/10/20,1508428800,2017,10,20,98,55,67,69,39,49
2017/10/21,1508515200,2017,10,21,75,98,55,67,69,39
2017/10/22,1508601600,2017,10,22,38,75,98,55,67,69
2017/10/23,1508688000,2017,10,23,35,38,75,98,55,67
2017/10/24,1508774400,2017,10,24,69,35,38,75,98,55
2017/10/25,1508860800,2017,10,25,108,69,35,38,75,98
2017/10/26,1508947200,2017,10,26,152,108,69,35,38,75
2017/10/27,1509033600,2017,10,27,171,152,108,69,35,38
2017/10/28,1509120000,2017,10,28,45,171,152,108,69,35
2017/10/29,1509206400,2017,10,29,8,45,171,152,108,69
2017/10/30,1509292800,2017,10,30,18,8,45,171,152,108
2017/10/31,1509379200,2017,10,31,60,18,8,45,171,152
2017/11/1,1509465600,2017,11,1,64,60,18,8,45,171
2017/11/2,1509552000,2017,11,2,51,64,60,18,8,45
2017/11/3,1509638400,2017,11,3,8,51,64,60,18,8
2017/11/4,1509724800,2017,11,4,36,8,51,64,60,18
2017/11/5,1509811200,2017,11,5,100,36,8,51,64,60
2017/11/6,1509897600,2017,11,6,151,100,36,8,51,64
2017/11/7,1509984000,2017,11,7,84,151,100,36,8,51
2017/11/8,1510070400,2017,11,8,20,84,151,100,36,8
2017/11/9,1510156800,2017,11,9,51,20,84,151,100,36
2017/11/10,1510243200,2017,11,10,7,51,20,84,151,100
2017/11/11,1510329600,2017,11,11,17,7,51,20,84,151
2017/11/12,1510416000,2017,11,12,55,17,7,51,20,84
2017/11/13,1510502400,2017,11,13,26,55,17,7,51,20
2017/11/14,1510588800,2017,11,14,10,26,55,17,7,51
2017/11/15,1510675200,2017,11,15,15,10,26,55,17,7
2017/11/16,1510761600,2017,11,16,57,15,10,26,55,17
2017/11/17,1510848000,2017,11,17,23,57,15,10,26,55
2017/11/18,1510934400,2017,11,18,38,23,57,15,10,26
2017/11/19,1511020800,2017,11,19,89,38,23,57,15,10
2017/11/20,1511107200,2017,11,20,104,89,38,23,57,15
2017/11/21,1511193600,2017,11,21,121,104,89,38,23,57
2017/11/22,1511280000,2017,11,22,7,121,104,89,38,23
2017/11/23,1511366400,2017,11,23,7,7,121,104,89,38
2017/11/24,1511452800,2017,11,24,20,7,7,121,104,89
2017/11/25,1511539200,2017,11,25,41,20,7,7,121,104
2017/11/26,1511625600,2017,11,26,11,41,20,7,7,121
2017/11/27,1511712000,2017,11,27,70,11,41,20,7,7
2017/11/28,1511798400,2017,11,28,38,70,11,41,20,7
2017/11/29,1511884800,2017,11,29,13,38,70,11,41,20
2017/11/30,1511971200,2017,11,30,17,13,38,70,11,41
2017/12/1,1512057600,2017,12,1,64,17,13,38,70,11
2017/12/2,1512144000,2017,12,2,123,64,17,13,38,70
2017/12/3,1512230400,2017,12,3,204,123,64,17,13,38
2017/12/4,1512316800,2017,12,4,5,204,123,64,17,13
2017/12/5,1512403200,2017,12,5,31,5,204,123,64,17
2017/12/6,1512489600,2017,12,6,46,31,5,204,123,64
2017/12/7,1512576000,2017,12,7,6,46,31,5,204,123
2017/12/8,1512662400,2017,12,8,6,6,46,31,5,204
2017/12/9,1512748800,2017,12,9,34,6,6,46,31,5
2017/12/10,1512835200,2017,12,10,7,34,6,6,46,31
2017/12/11,1512921600,2017,12,11,9,7,34,6,6,46
2017/12/12,1513008000,2017,12,12,5,9,7,34,6,6
2017/12/13,1513094400,2017,12,13,32,5,9,7,34,6
2017/12/14,1513180800,2017,12,14,72,32,5,9,7,34
2017/12/15,1513267200,2017,12,15,33,72,32,5,9,7
2017/12/16,1513353600,2017,12,16,8,33,72,32,5,9
2017/12/17,1513440000,2017,12,17,28,8,33,72,32,5
2017/12/18,1513526400,2017,12,18,12,28,8,33,72,32
2017/12/19,1513612800,2017,12,19,38,12,28,8,33,72
2017/12/20,1513699200,2017,12,20,20,38,12,28,8,33
2017/12/21,1513785600,2017,12,21,51,20,38,12,28,8
2017/12/22,1513872000,2017,12,22,36,51,20,38,12,28
2017/12/23,1513958400,2017,12,23,32,36,51,20,38,12
2017/12/24,1514044800,2017,12,24,13,32,36,51,20,38
2017/12/25,1514131200,2017,12,25,31,13,32,36,51,20
2017/12/26,1514217600,2017,12,26,23,31,13,32,36,51
2017/12/27,1514304000,2017,12,27,74,23,31,13,32,36
2017/12/28,1514390400,2017,12,28,109,74,23,31,13,32
2017/12/29,1514476800,2017,12,29,175,109,74,23,31,13
2017/12/30,1514563200,2017,12,30,111,175,109,74,23,31
2017/12/31,1514649600,2017,12,31,33,111,175,109,74,23
2018/1/1,1514736000,2018,1,1,33,33,111,175,109,74
2018/1/2,1514822400,2018,1,2,27,33,33,111,175,109
2018/1/3,1514908800,2018,1,3,11,27,33,33,111,175
2018/1/4,1514995200,2018,1,4,15,11,27,33,33,111
2018/1/5,1515081600,2018,1,5,32,15,11,27,33,33
2018/1/6,1515168000,2018,1,6,16,32,15,11,27,33
2018/1/7,1515254400,2018,1,7,38,16,32,15,11,27
2018/1/8,1515340800,2018,1,8,12,38,16,32,15,11
2018/1/9,1515427200,2018,1,9,7,12,38,16,32,15
2018/1/10,1515513600,2018,1,10,6,7,12,38,16,32
2018/1/11,1515600000,2018,1,11,12,6,7,12,38,16
2018/1/12,1515686400,2018,1,12,59,12,6,7,12,38
2018/1/13,1515772800,2018,1,13,104,59,12,6,7,12
2018/1/14,1515859200,2018,1,14,132,104,59,12,6,7
2018/1/15,1515945600,2018,1,15,32,132,104,59,12,6
2018/1/16,1516032000,2018,1,16,45,32,132,104,59,12
2018/1/17,1516118400,2018,1,17,41,45,32,132,104,59
2018/1/18,1516204800,2018,1,18,62,41,45,32,132,104
2018/1/19,1516291200,2018,1,19,80,62,41,45,32,132
2018/1/20,1516377600,2018,1,20,31,80,62,41,45,32
2018/1/21,1516464000,2018,1,21,36,31,80,62,41,45
2018/1/22,1516550400,2018,1,22,22,36,31,80,62,41
2018/1/23,1516636800,2018,1,23,11,22,36,31,80,62
2018/1/24,1516723200,2018,1,24,17,11,22,36,31,80
2018/1/25,1516809600,2018,1,25,9,17,11,22,36,31
2018/1/26,1516896000,2018,1,26,27,9,17,11,22,36
2018/1/27,1516982400,2018,1,27,81,27,9,17,11,22
2018/1/28,1517068800,2018,1,28,11,81,27,9,17,11
2018/1/29,1517155200,2018,1,29,8,11,81,27,9,17
2018/1/30,1517241600,2018,1,30,11,8,11,81,27,9
2018/1/31,1517328000,2018,1,31,22,11,8,11,81,27
2018/2/1,1517414400,2018,2,1,30,22,11,8,11,81
2018/2/2,1517500800,2018,2,2,8,30,22,11,8,11
2018/2/3,1517587200,2018,2,3,8,8,30,22,11,8
2018/2/4,1517673600,2018,2,4,19,8,8,30,22,11
2018/2/5,1517760000,2018,2,5,7,19,8,8,30,22
2018/2/6,1517846400,2018,2,6,46,7,19,8,8,30
2018/2/7,1517932800,2018,2,7,32,46,7,19,8,8
2018/2/8,1518019200,2018,2,8,52,32,46,7,19,8
2018/2/9,1518105600,2018,2,9,40,52,32,46,7,19
2018/2/10,1518192000,2018,2,10,10,40,52,32,46,7
2018/2/11,1518278400,2018,2,11,9,10,40,52,32,46
2018/2/12,1518364800,2018,2,12,12,9,10,40,52,32
2018/2/13,1518451200,2018,2,13,59,12,9,10,40,52
2018/2/14,1518537600,2018,2,14,13,59,12,9,10,40
2018/2/15,1518624000,2018,2,15,53,13,59,12,9,10
2018/2/16,1518710400,2018,2,16,79,53,13,59,12,9
2018/2/17,1518796800,2018,2,17,81,79,53,13,59,12
2018/2/18,1518883200,2018,2,18,116,81,79,53,13,59
2018/2/19,1518969600,2018,2,19,141,116,81,79,53,13
2018/2/20,1519056000,2018,2,20,45,141,116,81,79,53
2018/2/21,1519142400,2018,2,21,33,45,141,116,81,79
2018/2/22,1519228800,2018,2,22,18,33,45,141,116,81
2018/2/23,1519315200,2018,2,23,23,18,33,45,141,116
2018/2/24,1519401600,2018,2,24,29,23,18,33,45,141
2018/2/25,1519488000,2018,2,25,60,29,23,18,33,45
2018/2/26,1519574400,2018,2,26,124,60,29,23,18,33
2018/2/27,1519660800,2018,2,27,169,124,60,29,23,18
2018/2/28,1519747200,2018,2,28,88,169,124,60,29,23
2018/3/1,1519833600,2018,3,1,17,88,169,124,60,29
2018/3/2,1519920000,2018,3,2,79,17,88,169,124,60
2018/3/3,1520006400,2018,3,3,171,79,17,88,169,124
2018/3/4,1520092800,2018,3,4,58,171,79,17,88,169
2018/3/5,1520179200,2018,3,5,48,58,171,79,17,88
2018/3/6,1520265600,2018,3,6,45,48,58,171,79,17
2018/3/7,1520352000,2018,3,7,46,45,48,58,171,79
2018/3/8,1520438400,2018,3,8,43,46,45,48,58,171
2018/3/9,1520524800,2018,3,9,104,43,46,45,48,58
2018/3/10,1520611200,2018,3,10,119,104,43,46,45,48
2018/3/11,1520697600,2018,3,11,63,119,104,43,46,45
2018/3/12,1520784000,2018,3,12,146,63,119,104,43,46
2018/3/13,1520870400,2018,3,13,244,146,63,119,104,43
2018/3/14,1520956800,2018,3,14,237,244,146,63,119,104
2018/3/15,1521043200,2018,3,15,20,237,244,146,63,119
2018/3/16,1521129600,2018,3,16,33,20,237,244,146,63
2018/3/17,1521216000,2018,3,17,61,33,20,237,244,146
2018/3/18,1521302400,2018,3,18,105,61,33,20,237,244
2018/3/19,1521388800,2018,3,19,70,105,61,33,20,237
2018/3/20,1521475200,2018,3,20,23,70,105,61,33,20
2018/3/21,1521561600,2018,3,21,59,23,70,105,61,33
2018/3/22,1521648000,2018,3,22,87,59,23,70,105,61
2018/3/23,1521734400,2018,3,23,110,87,59,23,70,105
2018/3/24,1521820800,2018,3,24,91,110,87,59,23,70
2018/3/25,1521907200,2018,3,25,57,91,110,87,59,23
2018/3/26,1521993600,2018,3,26,123,57,91,110,87,59
2018/3/27,1522080000,2018,3,27,197,123,57,91,110,87
2018/3/28,1522166400,2018,3,28,0,197,123,57,91,110
2018/3/29,1522252800,2018,3,29,39,0,197,123,57,91
2018/3/30,1522339200,2018,3,30,41,39,0,197,123,57
2018/3/31,1522425600,2018,3,31,104,41,39,0,197,123
2018/4/1,1522512000,2018,4,1,176,104,41,39,0,197
2018/4/2,1522598400,2018,4,2,223,176,104,41,39,0
2018/4/3,1522684800,2018,4,3,12,223,176,104,41,39
2018/4/4,1522771200,2018,4,4,22,12,223,176,104,41
2018/4/5,1522857600,2018,4,5,51,22,12,223,176,104
2018/4/6,1522944000,2018,4,6,14,51,22,12,223,176
2018/4/7,1523030400,2018,4,7,18,14,51,22,12,223
2018/4/8,1523116800,2018,4,8,40,18,14,51,22,12
2018/4/9,1523203200,2018,4,9,87,40,18,14,51,22
2018/4/10,1523289600,2018,4,10,51,87,40,18,14,51
2018/4/11,1523376000,2018,4,11,19,51,87,40,18,14
2018/4/12,1523462400,2018,4,12,31,19,51,87,40,18
2018/4/13,1523548800,2018,4,13,39,31,19,51,87,40
2018/4/14,1523635200,2018,4,14,28,39,31,19,51,87
2018/4/15,1523721600,2018,4,15,24,28,39,31,19,51
2018/4/16,1523808000,2018,4,16,72,24,28,39,31,19
2018/4/17,1523894400,2018,4,17,96,72,24,28,39,31
2018/4/18,1523980800,2018,4,18,110,96,72,24,28,39
2018/4/19,1524067200,2018,4,19,122,110,96,72,24,28
2018/4/20,1524153600,2018,4,20,125,122,110,96,72,24
2018/4/21,1524240000,2018,4,21,68,125,122,110,96,72
2018/4/22,1524326400,2018,4,22,10,68,125,122,110,96
2018/4/23,1524412800,2018,4,23,17,10,68,125,122,110
2018/4/24,1524499200,2018,4,24,19,17,10,68,125,122
2018/4/25,1524585600,2018,4,25,33,19,17,10,68,125
2018/4/26,1524672000,2018,4,26,92,33,19,17,10,68
2018/4/27,1524758400,2018,4,27,41,92,33,19,17,10
2018/4/28,1524844800,2018,4,28,96,41,92,33,19,17
2018/4/29,1524931200,2018,4,29,146,96,41,92,33,19
2018/4/30,1525017600,2018,4,30,29,146,96,41,92,33
2018/5/1,1525104000,2018,5,1,40,29,146,96,41,92
2018/5/2,1525190400,2018,5,2,17,40,29,146,96,41
2018/5/3,1525276800,2018,5,3,15,17,40,29,146,96
2018/5/4,1525363200,2018,5,4,61,15,17,40,29,146
2018/5/5,1525449600,2018,5,5,0,61,15,17,40,29
2018/5/6,1525536000,2018,5,6,59,0,61,15,17,40
2018/5/7,1525622400,2018,5,7,55,59,0,61,15,17
2018/5/8,1525708800,2018,5,8,30,55,59,0,61,15
2018/5/9,1525795200,2018,5,9,47,30,55,59,0,61
2018/5/10,1525881600,2018,5,10,92,47,30,55,59,0
2018/5/11,1525968000,2018,5,11,81,92,47,30,55,59
2018/5/12,1526054400,2018,5,12,139,81,92,47,30,55
2018/5/13,1526140800,2018,5,13,49,139,81,92,47,30
2018/5/14,1526227200,2018,5,14,118,49,139,81,92,47
2018/5/15,1526313600,2018,5,15,67,118,49,139,81,92
2018/5/16,1526400000,2018,5,16,116,67,118,49,139,81
2018/5/17,1526486400,2018,5,17,42,116,67,118,49,139
2018/5/18,1526572800,2018,5,18,23,42,116,67,118,49
2018/5/19,1526659200,2018,5,19,38,23,42,116,67,118
2018/5/20,1526745600,2018,5,20,39,38,23,42,116,67
2018/5/21,1526832000,2018,5,21,61,39,38,23,42,116
2018/5/22,1526918400,2018,5,22,45,61,39,38,23,42
2018/5/23,1527004800,2018,5,23,56,45,61,39,38,23
2018/5/24,1527091200,2018,5,24,52,56,45,61,39,38
2018/5/25,1527177600,2018,5,25,61,52,56,45,61,39
2018/5/26,1527264000,2018,5,26,0,61,52,56,45,61
2018/5/27,1527350400,2018,5,27,44,0,61,52,56,45
2018/5/28,1527436800,2018,5,28,0,44,0,61,52,56
2018/5/29,1527523200,2018,5,29,14,0,44,0,61,52
2018/5/30,1527609600,2018,5,30,13,14,0,44,0,61
2018/5/31,1527696000,2018,5,31,29,13,14,0,44,0
2018/6/1,1527782400,2018,6,1,28,29,13,14,0,44
2018/6/2,1527868800,2018,6,2,51,28,29,13,14,0
2018/6/3,1527955200,2018,6,3,54,51,28,29,13,14
2018/6/4,1528041600,2018,6,4,30,54,51,28,29,13
2018/6/5,1528128000,2018,6,5,40,30,54,51,28,29
2018/6/6,1528214400,2018,6,6,54,40,30,54,51,28
2018/6/7,1528300800,2018,6,7,22,54,40,30,54,51
2018/6/8,1528387200,2018,6,8,15,22,54,40,30,54
2018/6/9,1528473600,2018,6,9,21,15,22,54,40,30
2018/6/10,1528560000,2018,6,10,34,21,15,22,54,40
2018/6/11,1528646400,2018,6,11,64,34,21,15,22,54
2018/6/12,1528732800,2018,6,12,86,64,34,21,15,22
2018/6/13,1528819200,2018,6,13,46,86,64,34,21,15
2018/6/14,1528905600,2018,6,14,25,46,86,64,34,21
2018/6/15,1528992000,2018,6,15,63,25,46,86,64,34
2018/6/16,1529078400,2018,6,16,81,63,25,46,86,64
2018/6/17,1529164800,2018,6,17,45,81,63,25,46,86
2018/6/18,1529251200,2018,6,18,81,45,81,63,25,46
2018/6/19,1529337600,2018,6,19,53,81,45,81,63,25
2018/6/20,1529424000,2018,6,20,39,53,81,45,81,63
2018/6/21,1529510400,2018,6,21,27,39,53,81,45,81
2018/6/22,1529596800,2018,6,22,58,27,39,53,81,45
2018/6/23,1529683200,2018,6,23,56,58,27,39,53,81
2018/6/24,1529769600,2018,6,24,54,56,58,27,39,53
2018/6/25,1529856000,2018,6,25,82,54,56,58,27,39
2018/6/26,1529942400,2018,6,26,124,82,54,56,58,27
2018/6/27,1530028800,2018,6,27,26,124,82,54,56,58
2018/6/28,1530115200,2018,6,28,9,26,124,82,54,56
2018/6/29,1530201600,2018,6,29,18,9,26,124,82,54
2018/6/30,1530288000,2018,6,30,33,18,9,26,124,82
2018/7/1,1530374400,2018,7,1,49,33,18,9,26,124
2018/7/2,1530460800,2018,7,2,44,49,33,18,9,26
2018/7/3,1530547200,2018,7,3,54,44,49,33,18,9
2018/7/4,1530633600,2018,7,4,59,54,44,49,33,18
2018/7/5,1530720000,2018,7,5,71,59,54,44,49,33
2018/7/6,1530806400,2018,7,6,36,71,59,54,44,49
2018/7/7,1530892800,2018,7,7,51,36,71,59,54,44
2018/7/8,1530979200,2018,7,8,54,51,36,71,59,54
2018/7/9,1531065600,2018,7,9,76,54,51,36,71,59
2018/7/10,1531152000,2018,7,10,32,76,54,51,36,71
2018/7/11,1531238400,2018,7,11,30,32,76,54,51,36
2018/7/12,1531324800,2018,7,12,33,30,32,76,54,51
2018/7/13,1531411200,2018,7,13,43,33,30,32,76,54
2018/7/14,1531497600,2018,7,14,51,43,33,30,32,76
2018/7/15,1531584000,2018,7,15,59,51,43,33,30,32
2018/7/16,1531670400,2018,7,16,26,59,51,43,33,30
2018/7/17,1531756800,2018,7,17,18,26,59,51,43,33
2018/7/18,1531843200,2018,7,18,82,18,26,59,51,43
2018/7/19,1531929600,2018,7,19,68,82,18,26,59,51
2018/7/20,1532016000,2018,7,20,80,68,82,18,26,59
2018/7/21,1532102400,2018,7,21,69,80,68,82,18,26
2018/7/22,1532188800,2018,7,22,44,69,80,68,82,18
2018/7/23,1532275200,2018,7,23,54,44,69,80,68,82
2018/7/24,1532361600,2018,7,24,17,54,44,69,80,68
2018/7/25,1532448000,2018,7,25,10,17,54,44,69,80
2018/7/26,1532534400,2018,7,26,11,10,17,54,44,69
2018/7/27,1532620800,2018,7,27,46,11,10,17,54,44
2018/7/28,1532707200,2018,7,28,55,46,11,10,17,54
2018/7/29,1532793600,2018,7,29,72,55,46,11,10,17
2018/7/30,1532880000,2018,7,30,72,72,55,46,11,10
2018/7/31,1532966400,2018,7,31,62,72,72,55,46,11
2018/8/1,1533052800,2018,8,1,58,62,72,72,55,46
2018/8/2,1533139200,2018,8,2,81,58,62,72,72,55
2018/8/3,1533225600,2018,8,3,54,81,58,62,72,72
2018/8/4,1533312000,2018,8,4,63,54,81,58,62,72
2018/8/5,1533398400,2018,8,5,34,63,54,81,58,62
2018/8/6,1533484800,2018,8,6,35,34,63,54,81,58
